﻿# Wavefront OBJ file automatically generated by Tiled2Unity

# Vertices (Count = 1375)
v -384 -1024 0
v -416 -1024 0
v -416 -992 0
v -384 -992 0
v -352 -1024 0
v -352 -992 0
v -320 -1024 0
v -320 -992 0
v -288 -1024 0
v -288 -992 0
v -256 -1024 0
v -256 -992 0
v -224 -1024 0
v -224 -992 0
v -192 -1024 0
v -192 -992 0
v -160 -1024 0
v -160 -992 0
v -128 -1024 0
v -128 -992 0
v -96 -1024 0
v -96 -992 0
v -64 -1024 0
v -64 -992 0
v -32 -1024 0
v -32 -992 0
v 0 -1024 0
v 0 -992 0
v -128 -1056 0
v -160 -1056 0
v -96 -1056 0
v -64 -1056 0
v -32 -1056 0
v 0 -1056 0
v -128 -1088 0
v -160 -1088 0
v -96 -1088 0
v -64 -1088 0
v -32 -1088 0
v 0 -1088 0
v -128 -1120 0
v -160 -1120 0
v -96 -1120 0
v -64 -1120 0
v -32 -1120 0
v 0 -1120 0
v -128 -1152 0
v -160 -1152 0
v -96 -1152 0
v -64 -1152 0
v -32 -1152 0
v 0 -1152 0
v -128 -1184 0
v -160 -1184 0
v -96 -1184 0
v -64 -1184 0
v -32 -1184 0
v 0 -1184 0
v -128 -1216 0
v -160 -1216 0
v -96 -1216 0
v -64 -1216 0
v -32 -1216 0
v 0 -1216 0
v -128 -1248 0
v -160 -1248 0
v -96 -1248 0
v -64 -1248 0
v -32 -1248 0
v 0 -1248 0
v -128 -1280 0
v -160 -1280 0
v -96 -1280 0
v -64 -1280 0
v -32 -1280 0
v 0 -1280 0
v -128 -1312 0
v -160 -1312 0
v -96 -1312 0
v -64 -1312 0
v -32 -1312 0
v 0 -1312 0
v -128 -1344 0
v -160 -1344 0
v -96 -1344 0
v -64 -1344 0
v -32 -1344 0
v 0 -1344 0
v -128 -1376 0
v -160 -1376 0
v -96 -1376 0
v -64 -1376 0
v -32 -1376 0
v 0 -1376 0
v -3360 -1408 0
v -3392 -1408 0
v -3392 -1376 0
v -3360 -1376 0
v -3328 -1408 0
v -3328 -1376 0
v -3296 -1408 0
v -3296 -1376 0
v -3232 -1408 0
v -3264 -1408 0
v -3264 -1376 0
v -3232 -1376 0
v -3200 -1408 0
v -3200 -1376 0
v -3168 -1408 0
v -3168 -1376 0
v -2336 -1408 0
v -2368 -1408 0
v -2368 -1376 0
v -2336 -1376 0
v -2304 -1408 0
v -2304 -1376 0
v -2272 -1408 0
v -2272 -1376 0
v -2112 -1408 0
v -2144 -1408 0
v -2144 -1376 0
v -2112 -1376 0
v -2080 -1408 0
v -2080 -1376 0
v -2048 -1408 0
v -2048 -1376 0
v -1184 -1408 0
v -1216 -1408 0
v -1216 -1376 0
v -1184 -1376 0
v -1152 -1408 0
v -1152 -1376 0
v -1120 -1408 0
v -1120 -1376 0
v -704 -1408 0
v -736 -1408 0
v -736 -1376 0
v -704 -1376 0
v -672 -1408 0
v -672 -1376 0
v -640 -1408 0
v -640 -1376 0
v -352 -1408 0
v -384 -1408 0
v -384 -1376 0
v -352 -1376 0
v -320 -1408 0
v -320 -1376 0
v -288 -1408 0
v -288 -1376 0
v -128 -1408 0
v -160 -1408 0
v -96 -1408 0
v -64 -1408 0
v -32 -1408 0
v 0 -1408 0
v -3360 -1440 0
v -3392 -1440 0
v -3328 -1440 0
v -3296 -1440 0
v -3232 -1440 0
v -3264 -1440 0
v -3200 -1440 0
v -3168 -1440 0
v -2848 -1440 0
v -2880 -1440 0
v -2880 -1408 0
v -2848 -1408 0
v -2336 -1440 0
v -2368 -1440 0
v -2304 -1440 0
v -2272 -1440 0
v -2112 -1440 0
v -2144 -1440 0
v -2080 -1440 0
v -2048 -1440 0
v -1184 -1440 0
v -1216 -1440 0
v -1152 -1440 0
v -1120 -1440 0
v -704 -1440 0
v -736 -1440 0
v -672 -1440 0
v -640 -1440 0
v -352 -1440 0
v -384 -1440 0
v -320 -1440 0
v -288 -1440 0
v -128 -1440 0
v -160 -1440 0
v -96 -1440 0
v -64 -1440 0
v -32 -1440 0
v 0 -1440 0
v -3360 -1472 0
v -3392 -1472 0
v -3328 -1472 0
v -3200 -1472 0
v -3232 -1472 0
v -3104 -1472 0
v -3136 -1472 0
v -3136 -1440 0
v -3104 -1440 0
v -2880 -1472 0
v -2912 -1472 0
v -2912 -1440 0
v -2432 -1472 0
v -2464 -1472 0
v -2464 -1440 0
v -2432 -1440 0
v -2400 -1472 0
v -2400 -1440 0
v -2304 -1472 0
v -2336 -1472 0
v -2080 -1472 0
v -2112 -1472 0
v -2048 -1472 0
v -1152 -1472 0
v -1184 -1472 0
v -1056 -1472 0
v -1088 -1472 0
v -1088 -1440 0
v -1056 -1440 0
v -960 -1472 0
v -992 -1472 0
v -992 -1440 0
v -960 -1440 0
v -672 -1472 0
v -704 -1472 0
v -512 -1472 0
v -544 -1472 0
v -544 -1440 0
v -512 -1440 0
v -320 -1472 0
v -352 -1472 0
v -128 -1472 0
v -160 -1472 0
v -96 -1472 0
v -64 -1472 0
v -32 -1472 0
v 0 -1472 0
v -128 -1504 0
v -160 -1504 0
v -96 -1504 0
v -64 -1504 0
v -32 -1504 0
v 0 -1504 0
v -128 -1536 0
v -160 -1536 0
v -96 -1536 0
v -64 -1536 0
v -32 -1536 0
v 0 -1536 0
v -128 -1568 0
v -160 -1568 0
v -96 -1568 0
v -64 -1568 0
v -32 -1568 0
v 0 -1568 0
v -128 -1600 0
v -160 -1600 0
v -96 -1600 0
v -64 -1600 0
v -32 -1600 0
v 0 -1600 0
v -128 -1632 0
v -160 -1632 0
v -96 -1632 0
v -64 -1632 0
v -32 -1632 0
v 0 -1632 0
v -128 -1664 0
v -160 -1664 0
v -96 -1664 0
v -64 -1664 0
v -32 -1664 0
v 0 -1664 0
v -4192 -1248 0
v -4224 -1248 0
v -4224 -1216 0
v -4192 -1216 0
v -4160 -1248 0
v -4160 -1216 0
v -4128 -1248 0
v -4128 -1216 0
v -4096 -1248 0
v -4096 -1216 0
v -4064 -1248 0
v -4064 -1216 0
v -4032 -1248 0
v -4032 -1216 0
v -4000 -1248 0
v -4000 -1216 0
v -4192 -1280 0
v -4224 -1280 0
v -4160 -1280 0
v -4128 -1280 0
v -4096 -1280 0
v -4064 -1280 0
v -4032 -1280 0
v -4000 -1280 0
v -4192 -1312 0
v -4224 -1312 0
v -4160 -1312 0
v -4128 -1312 0
v -4096 -1312 0
v -4064 -1312 0
v -4032 -1312 0
v -4000 -1312 0
v -3968 -1312 0
v -3968 -1280 0
v -3936 -1312 0
v -3936 -1280 0
v -3904 -1312 0
v -3904 -1280 0
v -3872 -1312 0
v -3872 -1280 0
v -4192 -1344 0
v -4224 -1344 0
v -4160 -1344 0
v -4128 -1344 0
v -4096 -1344 0
v -4064 -1344 0
v -4032 -1344 0
v -4000 -1344 0
v -3968 -1344 0
v -3936 -1344 0
v -3904 -1344 0
v -3872 -1344 0
v -4192 -1376 0
v -4224 -1376 0
v -4160 -1376 0
v -4128 -1376 0
v -4096 -1376 0
v -4064 -1376 0
v -4032 -1376 0
v -4000 -1376 0
v -3968 -1376 0
v -3936 -1376 0
v -3904 -1376 0
v -3872 -1376 0
v -3840 -1376 0
v -3840 -1344 0
v -3808 -1376 0
v -3808 -1344 0
v -3776 -1376 0
v -3776 -1344 0
v -3744 -1376 0
v -3744 -1344 0
v -2752 -1376 0
v -2784 -1376 0
v -2784 -1344 0
v -2752 -1344 0
v -2720 -1376 0
v -2720 -1344 0
v -2688 -1376 0
v -2688 -1344 0
v -2656 -1376 0
v -2656 -1344 0
v -2624 -1376 0
v -2624 -1344 0
v -2592 -1376 0
v -2592 -1344 0
v -2560 -1376 0
v -2560 -1344 0
v -1760 -1376 0
v -1792 -1376 0
v -1792 -1344 0
v -1760 -1344 0
v -1728 -1376 0
v -1728 -1344 0
v -1696 -1376 0
v -1696 -1344 0
v -1664 -1376 0
v -1664 -1344 0
v -1632 -1376 0
v -1632 -1344 0
v -1600 -1376 0
v -1600 -1344 0
v -1568 -1376 0
v -1568 -1344 0
v -4192 -1408 0
v -4224 -1408 0
v -4160 -1408 0
v -4128 -1408 0
v -4096 -1408 0
v -4064 -1408 0
v -4032 -1408 0
v -4000 -1408 0
v -3968 -1408 0
v -3936 -1408 0
v -3904 -1408 0
v -3872 -1408 0
v -3840 -1408 0
v -3808 -1408 0
v -3776 -1408 0
v -3744 -1408 0
v -2784 -1408 0
v -2816 -1408 0
v -2816 -1376 0
v -2752 -1408 0
v -2720 -1408 0
v -2688 -1408 0
v -2656 -1408 0
v -2624 -1408 0
v -2592 -1408 0
v -2560 -1408 0
v -2528 -1408 0
v -2528 -1376 0
v -1792 -1408 0
v -1824 -1408 0
v -1824 -1376 0
v -1760 -1408 0
v -1728 -1408 0
v -1696 -1408 0
v -1664 -1408 0
v -1632 -1408 0
v -1600 -1408 0
v -1568 -1408 0
v -1536 -1408 0
v -1536 -1376 0
v -4192 -1440 0
v -4224 -1440 0
v -4160 -1440 0
v -4128 -1440 0
v -4096 -1440 0
v -4064 -1440 0
v -4032 -1440 0
v -4000 -1440 0
v -3968 -1440 0
v -3936 -1440 0
v -3904 -1440 0
v -3872 -1440 0
v -3840 -1440 0
v -3808 -1440 0
v -3776 -1440 0
v -3744 -1440 0
v -3712 -1440 0
v -3712 -1408 0
v -3680 -1440 0
v -3680 -1408 0
v -3648 -1440 0
v -3648 -1408 0
v -3616 -1440 0
v -3616 -1408 0
v -2816 -1440 0
v -2784 -1440 0
v -2752 -1440 0
v -2720 -1440 0
v -2688 -1440 0
v -2656 -1440 0
v -2624 -1440 0
v -2592 -1440 0
v -2560 -1440 0
v -2528 -1440 0
v -2496 -1440 0
v -2496 -1408 0
v -1824 -1440 0
v -1856 -1440 0
v -1856 -1408 0
v -1792 -1440 0
v -1760 -1440 0
v -1728 -1440 0
v -1696 -1440 0
v -1664 -1440 0
v -1632 -1440 0
v -1600 -1440 0
v -1568 -1440 0
v -1536 -1440 0
v -1504 -1440 0
v -1504 -1408 0
v -4192 -1472 0
v -4224 -1472 0
v -4160 -1472 0
v -4128 -1472 0
v -4096 -1472 0
v -4064 -1472 0
v -4032 -1472 0
v -4000 -1472 0
v -3968 -1472 0
v -3936 -1472 0
v -3904 -1472 0
v -3872 -1472 0
v -3840 -1472 0
v -3808 -1472 0
v -3776 -1472 0
v -3744 -1472 0
v -3712 -1472 0
v -3680 -1472 0
v -3648 -1472 0
v -3616 -1472 0
v -2848 -1472 0
v -2816 -1472 0
v -2784 -1472 0
v -2752 -1472 0
v -2720 -1472 0
v -2688 -1472 0
v -2656 -1472 0
v -2624 -1472 0
v -2592 -1472 0
v -2560 -1472 0
v -2528 -1472 0
v -2496 -1472 0
v -1856 -1472 0
v -1888 -1472 0
v -1888 -1440 0
v -1824 -1472 0
v -1792 -1472 0
v -1760 -1472 0
v -1728 -1472 0
v -1696 -1472 0
v -1664 -1472 0
v -1632 -1472 0
v -1600 -1472 0
v -1568 -1472 0
v -1536 -1472 0
v -1504 -1472 0
v -1472 -1472 0
v -1472 -1440 0
v -4384 -1504 0
v -4416 -1504 0
v -4416 -1472 0
v -4384 -1472 0
v -4352 -1504 0
v -4352 -1472 0
v -4320 -1504 0
v -4320 -1472 0
v -4288 -1504 0
v -4288 -1472 0
v -4256 -1504 0
v -4256 -1472 0
v -4224 -1504 0
v -4192 -1504 0
v -4160 -1504 0
v -4128 -1504 0
v -4096 -1504 0
v -4064 -1504 0
v -4032 -1504 0
v -4000 -1504 0
v -3968 -1504 0
v -3936 -1504 0
v -3904 -1504 0
v -3872 -1504 0
v -3840 -1504 0
v -3808 -1504 0
v -3776 -1504 0
v -3744 -1504 0
v -3712 -1504 0
v -3680 -1504 0
v -3648 -1504 0
v -3616 -1504 0
v -3584 -1504 0
v -3584 -1472 0
v -3552 -1504 0
v -3552 -1472 0
v -3520 -1504 0
v -3520 -1472 0
v -3488 -1504 0
v -3488 -1472 0
v -3456 -1504 0
v -3456 -1472 0
v -3424 -1504 0
v -3424 -1472 0
v -3392 -1504 0
v -3360 -1504 0
v -3328 -1504 0
v -3296 -1504 0
v -3296 -1472 0
v -3264 -1504 0
v -3264 -1472 0
v -3232 -1504 0
v -3200 -1504 0
v -3168 -1504 0
v -3168 -1472 0
v -3136 -1504 0
v -3104 -1504 0
v -3072 -1504 0
v -3072 -1472 0
v -3040 -1504 0
v -3040 -1472 0
v -3008 -1504 0
v -3008 -1472 0
v -2976 -1504 0
v -2976 -1472 0
v -2944 -1504 0
v -2944 -1472 0
v -2912 -1504 0
v -2880 -1504 0
v -2848 -1504 0
v -2816 -1504 0
v -2784 -1504 0
v -2752 -1504 0
v -2720 -1504 0
v -2688 -1504 0
v -2656 -1504 0
v -2624 -1504 0
v -2592 -1504 0
v -2560 -1504 0
v -2528 -1504 0
v -2496 -1504 0
v -2464 -1504 0
v -2432 -1504 0
v -2400 -1504 0
v -2368 -1504 0
v -2368 -1472 0
v -2336 -1504 0
v -2304 -1504 0
v -2272 -1504 0
v -2272 -1472 0
v -2240 -1504 0
v -2240 -1472 0
v -2208 -1504 0
v -2208 -1472 0
v -2176 -1504 0
v -2176 -1472 0
v -2144 -1504 0
v -2144 -1472 0
v -2112 -1504 0
v -2080 -1504 0
v -2048 -1504 0
v -2016 -1504 0
v -2016 -1472 0
v -1984 -1504 0
v -1984 -1472 0
v -1952 -1504 0
v -1952 -1472 0
v -1920 -1504 0
v -1920 -1472 0
v -1888 -1504 0
v -1856 -1504 0
v -1824 -1504 0
v -1792 -1504 0
v -1760 -1504 0
v -1728 -1504 0
v -1696 -1504 0
v -1664 -1504 0
v -1632 -1504 0
v -1600 -1504 0
v -1568 -1504 0
v -1536 -1504 0
v -1504 -1504 0
v -1472 -1504 0
v -1440 -1504 0
v -1440 -1472 0
v -1408 -1504 0
v -1408 -1472 0
v -1376 -1504 0
v -1376 -1472 0
v -1344 -1504 0
v -1344 -1472 0
v -1312 -1504 0
v -1312 -1472 0
v -1280 -1504 0
v -1280 -1472 0
v -1248 -1504 0
v -1248 -1472 0
v -1216 -1504 0
v -1216 -1472 0
v -1184 -1504 0
v -1152 -1504 0
v -1120 -1504 0
v -1120 -1472 0
v -1088 -1504 0
v -1056 -1504 0
v -1024 -1504 0
v -1024 -1472 0
v -992 -1504 0
v -960 -1504 0
v -928 -1504 0
v -928 -1472 0
v -896 -1504 0
v -896 -1472 0
v -864 -1504 0
v -864 -1472 0
v -832 -1504 0
v -832 -1472 0
v -800 -1504 0
v -800 -1472 0
v -768 -1504 0
v -768 -1472 0
v -736 -1504 0
v -736 -1472 0
v -704 -1504 0
v -672 -1504 0
v -640 -1504 0
v -640 -1472 0
v -608 -1504 0
v -608 -1472 0
v -576 -1504 0
v -576 -1472 0
v -544 -1504 0
v -512 -1504 0
v -480 -1504 0
v -480 -1472 0
v -448 -1504 0
v -448 -1472 0
v -416 -1504 0
v -416 -1472 0
v -384 -1504 0
v -384 -1472 0
v -352 -1504 0
v -320 -1504 0
v -288 -1504 0
v -288 -1472 0
v -256 -1504 0
v -256 -1472 0
v -224 -1504 0
v -224 -1472 0
v -192 -1504 0
v -192 -1472 0
v -4384 -1536 0
v -4416 -1536 0
v -4352 -1536 0
v -4320 -1536 0
v -4288 -1536 0
v -4256 -1536 0
v -4224 -1536 0
v -4192 -1536 0
v -4160 -1536 0
v -4128 -1536 0
v -4096 -1536 0
v -4064 -1536 0
v -4032 -1536 0
v -4000 -1536 0
v -3968 -1536 0
v -3936 -1536 0
v -3904 -1536 0
v -3872 -1536 0
v -3840 -1536 0
v -3808 -1536 0
v -3776 -1536 0
v -3744 -1536 0
v -3712 -1536 0
v -3680 -1536 0
v -3648 -1536 0
v -3616 -1536 0
v -3584 -1536 0
v -3552 -1536 0
v -3520 -1536 0
v -3488 -1536 0
v -3456 -1536 0
v -3424 -1536 0
v -3392 -1536 0
v -3360 -1536 0
v -3328 -1536 0
v -3296 -1536 0
v -3264 -1536 0
v -3232 -1536 0
v -3200 -1536 0
v -3168 -1536 0
v -3136 -1536 0
v -3104 -1536 0
v -3072 -1536 0
v -3040 -1536 0
v -3008 -1536 0
v -2976 -1536 0
v -2944 -1536 0
v -2912 -1536 0
v -2880 -1536 0
v -2848 -1536 0
v -2816 -1536 0
v -2784 -1536 0
v -2752 -1536 0
v -2720 -1536 0
v -2688 -1536 0
v -2656 -1536 0
v -2624 -1536 0
v -2592 -1536 0
v -2560 -1536 0
v -2528 -1536 0
v -2496 -1536 0
v -2464 -1536 0
v -2432 -1536 0
v -2400 -1536 0
v -2368 -1536 0
v -2336 -1536 0
v -2304 -1536 0
v -2272 -1536 0
v -2240 -1536 0
v -2208 -1536 0
v -2176 -1536 0
v -2144 -1536 0
v -2112 -1536 0
v -2080 -1536 0
v -2048 -1536 0
v -2016 -1536 0
v -1984 -1536 0
v -1952 -1536 0
v -1920 -1536 0
v -1888 -1536 0
v -1856 -1536 0
v -1824 -1536 0
v -1792 -1536 0
v -1760 -1536 0
v -1728 -1536 0
v -1696 -1536 0
v -1664 -1536 0
v -1632 -1536 0
v -1600 -1536 0
v -1568 -1536 0
v -1536 -1536 0
v -1504 -1536 0
v -1472 -1536 0
v -1440 -1536 0
v -1408 -1536 0
v -1376 -1536 0
v -1344 -1536 0
v -1312 -1536 0
v -1280 -1536 0
v -1248 -1536 0
v -1216 -1536 0
v -1184 -1536 0
v -1152 -1536 0
v -1120 -1536 0
v -1088 -1536 0
v -1056 -1536 0
v -1024 -1536 0
v -992 -1536 0
v -960 -1536 0
v -928 -1536 0
v -896 -1536 0
v -864 -1536 0
v -832 -1536 0
v -800 -1536 0
v -768 -1536 0
v -736 -1536 0
v -704 -1536 0
v -672 -1536 0
v -640 -1536 0
v -608 -1536 0
v -576 -1536 0
v -544 -1536 0
v -512 -1536 0
v -480 -1536 0
v -448 -1536 0
v -416 -1536 0
v -384 -1536 0
v -352 -1536 0
v -320 -1536 0
v -288 -1536 0
v -256 -1536 0
v -224 -1536 0
v -192 -1536 0
v -4384 -1568 0
v -4416 -1568 0
v -4352 -1568 0
v -4320 -1568 0
v -4288 -1568 0
v -4256 -1568 0
v -4224 -1568 0
v -4192 -1568 0
v -4160 -1568 0
v -4128 -1568 0
v -4096 -1568 0
v -4064 -1568 0
v -4032 -1568 0
v -4000 -1568 0
v -3968 -1568 0
v -3936 -1568 0
v -3904 -1568 0
v -3872 -1568 0
v -3840 -1568 0
v -3808 -1568 0
v -3776 -1568 0
v -3744 -1568 0
v -3712 -1568 0
v -3680 -1568 0
v -3648 -1568 0
v -3616 -1568 0
v -3584 -1568 0
v -3552 -1568 0
v -3520 -1568 0
v -3488 -1568 0
v -3456 -1568 0
v -3424 -1568 0
v -3392 -1568 0
v -3360 -1568 0
v -3328 -1568 0
v -3296 -1568 0
v -3264 -1568 0
v -3232 -1568 0
v -3200 -1568 0
v -3168 -1568 0
v -3136 -1568 0
v -3104 -1568 0
v -3072 -1568 0
v -3040 -1568 0
v -3008 -1568 0
v -2976 -1568 0
v -2944 -1568 0
v -2912 -1568 0
v -2880 -1568 0
v -2848 -1568 0
v -2816 -1568 0
v -2784 -1568 0
v -2752 -1568 0
v -2720 -1568 0
v -2688 -1568 0
v -2656 -1568 0
v -2624 -1568 0
v -2592 -1568 0
v -2560 -1568 0
v -2528 -1568 0
v -2496 -1568 0
v -2464 -1568 0
v -2432 -1568 0
v -2400 -1568 0
v -2368 -1568 0
v -2336 -1568 0
v -2304 -1568 0
v -2272 -1568 0
v -2240 -1568 0
v -2208 -1568 0
v -2176 -1568 0
v -2144 -1568 0
v -2112 -1568 0
v -2080 -1568 0
v -2048 -1568 0
v -2016 -1568 0
v -1984 -1568 0
v -1952 -1568 0
v -1920 -1568 0
v -1888 -1568 0
v -1856 -1568 0
v -1824 -1568 0
v -1792 -1568 0
v -1760 -1568 0
v -1728 -1568 0
v -1696 -1568 0
v -1664 -1568 0
v -1632 -1568 0
v -1600 -1568 0
v -1568 -1568 0
v -1536 -1568 0
v -1504 -1568 0
v -1472 -1568 0
v -1440 -1568 0
v -1408 -1568 0
v -1376 -1568 0
v -1344 -1568 0
v -1312 -1568 0
v -1280 -1568 0
v -1248 -1568 0
v -1216 -1568 0
v -1184 -1568 0
v -1152 -1568 0
v -1120 -1568 0
v -1088 -1568 0
v -1056 -1568 0
v -1024 -1568 0
v -992 -1568 0
v -960 -1568 0
v -928 -1568 0
v -896 -1568 0
v -864 -1568 0
v -832 -1568 0
v -800 -1568 0
v -768 -1568 0
v -736 -1568 0
v -704 -1568 0
v -672 -1568 0
v -640 -1568 0
v -608 -1568 0
v -576 -1568 0
v -544 -1568 0
v -512 -1568 0
v -480 -1568 0
v -448 -1568 0
v -416 -1568 0
v -384 -1568 0
v -352 -1568 0
v -320 -1568 0
v -288 -1568 0
v -256 -1568 0
v -224 -1568 0
v -192 -1568 0
v -4384 -1600 0
v -4416 -1600 0
v -4352 -1600 0
v -4320 -1600 0
v -4288 -1600 0
v -4256 -1600 0
v -4224 -1600 0
v -4192 -1600 0
v -4160 -1600 0
v -4128 -1600 0
v -4096 -1600 0
v -4064 -1600 0
v -4032 -1600 0
v -4000 -1600 0
v -3968 -1600 0
v -3936 -1600 0
v -3904 -1600 0
v -3872 -1600 0
v -3840 -1600 0
v -3808 -1600 0
v -3776 -1600 0
v -3744 -1600 0
v -3712 -1600 0
v -3680 -1600 0
v -3648 -1600 0
v -3616 -1600 0
v -3584 -1600 0
v -3552 -1600 0
v -3520 -1600 0
v -3488 -1600 0
v -3456 -1600 0
v -3424 -1600 0
v -3392 -1600 0
v -3360 -1600 0
v -3328 -1600 0
v -3296 -1600 0
v -3264 -1600 0
v -3232 -1600 0
v -3200 -1600 0
v -3168 -1600 0
v -3136 -1600 0
v -3104 -1600 0
v -3072 -1600 0
v -3040 -1600 0
v -3008 -1600 0
v -2976 -1600 0
v -2944 -1600 0
v -2912 -1600 0
v -2880 -1600 0
v -2848 -1600 0
v -2816 -1600 0
v -2784 -1600 0
v -2752 -1600 0
v -2720 -1600 0
v -2688 -1600 0
v -2656 -1600 0
v -2624 -1600 0
v -2592 -1600 0
v -2560 -1600 0
v -2528 -1600 0
v -2496 -1600 0
v -2464 -1600 0
v -2432 -1600 0
v -2400 -1600 0
v -2368 -1600 0
v -2336 -1600 0
v -2304 -1600 0
v -2272 -1600 0
v -2240 -1600 0
v -2208 -1600 0
v -2176 -1600 0
v -2144 -1600 0
v -2112 -1600 0
v -2080 -1600 0
v -2048 -1600 0
v -2016 -1600 0
v -1984 -1600 0
v -1952 -1600 0
v -1920 -1600 0
v -1888 -1600 0
v -1856 -1600 0
v -1824 -1600 0
v -1792 -1600 0
v -1760 -1600 0
v -1728 -1600 0
v -1696 -1600 0
v -1664 -1600 0
v -1632 -1600 0
v -1600 -1600 0
v -1568 -1600 0
v -1536 -1600 0
v -1504 -1600 0
v -1472 -1600 0
v -1440 -1600 0
v -1408 -1600 0
v -1376 -1600 0
v -1344 -1600 0
v -1312 -1600 0
v -1280 -1600 0
v -1248 -1600 0
v -1216 -1600 0
v -1184 -1600 0
v -1152 -1600 0
v -1120 -1600 0
v -1088 -1600 0
v -1056 -1600 0
v -1024 -1600 0
v -992 -1600 0
v -960 -1600 0
v -928 -1600 0
v -896 -1600 0
v -864 -1600 0
v -832 -1600 0
v -800 -1600 0
v -768 -1600 0
v -736 -1600 0
v -704 -1600 0
v -672 -1600 0
v -640 -1600 0
v -608 -1600 0
v -576 -1600 0
v -544 -1600 0
v -512 -1600 0
v -480 -1600 0
v -448 -1600 0
v -416 -1600 0
v -384 -1600 0
v -352 -1600 0
v -320 -1600 0
v -288 -1600 0
v -256 -1600 0
v -224 -1600 0
v -192 -1600 0
v -4384 -1632 0
v -4416 -1632 0
v -4352 -1632 0
v -4320 -1632 0
v -4288 -1632 0
v -4256 -1632 0
v -4224 -1632 0
v -4192 -1632 0
v -4160 -1632 0
v -4128 -1632 0
v -4096 -1632 0
v -4064 -1632 0
v -4032 -1632 0
v -4000 -1632 0
v -3968 -1632 0
v -3936 -1632 0
v -3904 -1632 0
v -3872 -1632 0
v -3840 -1632 0
v -3808 -1632 0
v -3776 -1632 0
v -3744 -1632 0
v -3712 -1632 0
v -3680 -1632 0
v -3648 -1632 0
v -3616 -1632 0
v -3584 -1632 0
v -3552 -1632 0
v -3520 -1632 0
v -3488 -1632 0
v -3456 -1632 0
v -3424 -1632 0
v -3392 -1632 0
v -3360 -1632 0
v -3328 -1632 0
v -3296 -1632 0
v -3264 -1632 0
v -3232 -1632 0
v -3200 -1632 0
v -3168 -1632 0
v -3136 -1632 0
v -3104 -1632 0
v -3072 -1632 0
v -3040 -1632 0
v -3008 -1632 0
v -2976 -1632 0
v -2944 -1632 0
v -2912 -1632 0
v -2880 -1632 0
v -2848 -1632 0
v -2816 -1632 0
v -2784 -1632 0
v -2752 -1632 0
v -2720 -1632 0
v -2688 -1632 0
v -2656 -1632 0
v -2624 -1632 0
v -2592 -1632 0
v -2560 -1632 0
v -2528 -1632 0
v -2496 -1632 0
v -2464 -1632 0
v -2432 -1632 0
v -2400 -1632 0
v -2368 -1632 0
v -2336 -1632 0
v -2304 -1632 0
v -2272 -1632 0
v -2240 -1632 0
v -2208 -1632 0
v -2176 -1632 0
v -2144 -1632 0
v -2112 -1632 0
v -2080 -1632 0
v -2048 -1632 0
v -2016 -1632 0
v -1984 -1632 0
v -1952 -1632 0
v -1920 -1632 0
v -1888 -1632 0
v -1856 -1632 0
v -1824 -1632 0
v -1792 -1632 0
v -1760 -1632 0
v -1728 -1632 0
v -1696 -1632 0
v -1664 -1632 0
v -1632 -1632 0
v -1600 -1632 0
v -1568 -1632 0
v -1536 -1632 0
v -1504 -1632 0
v -1472 -1632 0
v -1440 -1632 0
v -1408 -1632 0
v -1376 -1632 0
v -1344 -1632 0
v -1312 -1632 0
v -1280 -1632 0
v -1248 -1632 0
v -1216 -1632 0
v -1184 -1632 0
v -1152 -1632 0
v -1120 -1632 0
v -1088 -1632 0
v -1056 -1632 0
v -1024 -1632 0
v -992 -1632 0
v -960 -1632 0
v -928 -1632 0
v -896 -1632 0
v -864 -1632 0
v -832 -1632 0
v -800 -1632 0
v -768 -1632 0
v -736 -1632 0
v -704 -1632 0
v -672 -1632 0
v -640 -1632 0
v -608 -1632 0
v -576 -1632 0
v -544 -1632 0
v -512 -1632 0
v -480 -1632 0
v -448 -1632 0
v -416 -1632 0
v -384 -1632 0
v -352 -1632 0
v -320 -1632 0
v -288 -1632 0
v -256 -1632 0
v -224 -1632 0
v -192 -1632 0
v -4384 -1664 0
v -4416 -1664 0
v -4352 -1664 0
v -4320 -1664 0
v -4288 -1664 0
v -4256 -1664 0
v -4224 -1664 0
v -4192 -1664 0
v -4160 -1664 0
v -4128 -1664 0
v -4096 -1664 0
v -4064 -1664 0
v -4032 -1664 0
v -4000 -1664 0
v -3968 -1664 0
v -3936 -1664 0
v -3904 -1664 0
v -3872 -1664 0
v -3840 -1664 0
v -3808 -1664 0
v -3776 -1664 0
v -3744 -1664 0
v -3712 -1664 0
v -3680 -1664 0
v -3648 -1664 0
v -3616 -1664 0
v -3584 -1664 0
v -3552 -1664 0
v -3520 -1664 0
v -3488 -1664 0
v -3456 -1664 0
v -3424 -1664 0
v -3392 -1664 0
v -3360 -1664 0
v -3328 -1664 0
v -3296 -1664 0
v -3264 -1664 0
v -3232 -1664 0
v -3200 -1664 0
v -3168 -1664 0
v -3136 -1664 0
v -3104 -1664 0
v -3072 -1664 0
v -3040 -1664 0
v -3008 -1664 0
v -2976 -1664 0
v -2944 -1664 0
v -2912 -1664 0
v -2880 -1664 0
v -2848 -1664 0
v -2816 -1664 0
v -2784 -1664 0
v -2752 -1664 0
v -2720 -1664 0
v -2688 -1664 0
v -2656 -1664 0
v -2624 -1664 0
v -2592 -1664 0
v -2560 -1664 0
v -2528 -1664 0
v -2496 -1664 0
v -2464 -1664 0
v -2432 -1664 0
v -2400 -1664 0
v -2368 -1664 0
v -2336 -1664 0
v -2304 -1664 0
v -2272 -1664 0
v -2240 -1664 0
v -2208 -1664 0
v -2176 -1664 0
v -2144 -1664 0
v -2112 -1664 0
v -2080 -1664 0
v -2048 -1664 0
v -2016 -1664 0
v -1984 -1664 0
v -1952 -1664 0
v -1920 -1664 0
v -1888 -1664 0
v -1856 -1664 0
v -1824 -1664 0
v -1792 -1664 0
v -1760 -1664 0
v -1728 -1664 0
v -1696 -1664 0
v -1664 -1664 0
v -1632 -1664 0
v -1600 -1664 0
v -1568 -1664 0
v -1536 -1664 0
v -1504 -1664 0
v -1472 -1664 0
v -1440 -1664 0
v -1408 -1664 0
v -1376 -1664 0
v -1344 -1664 0
v -1312 -1664 0
v -1280 -1664 0
v -1248 -1664 0
v -1216 -1664 0
v -1184 -1664 0
v -1152 -1664 0
v -1120 -1664 0
v -1088 -1664 0
v -1056 -1664 0
v -1024 -1664 0
v -992 -1664 0
v -960 -1664 0
v -928 -1664 0
v -896 -1664 0
v -864 -1664 0
v -832 -1664 0
v -800 -1664 0
v -768 -1664 0
v -736 -1664 0
v -704 -1664 0
v -672 -1664 0
v -640 -1664 0
v -608 -1664 0
v -576 -1664 0
v -544 -1664 0
v -512 -1664 0
v -480 -1664 0
v -448 -1664 0
v -416 -1664 0
v -384 -1664 0
v -352 -1664 0
v -320 -1664 0
v -288 -1664 0
v -256 -1664 0
v -224 -1664 0
v -192 -1664 0

# Texture Coorindates (Count = 112)
vt 0.3751221 0.6251221
vt 0.4373779 0.6251221
vt 0.4373779 0.6873779
vt 0.3751221 0.6873779
vt 0.3126221 0.6251221
vt 0.3748779 0.6251221
vt 0.3748779 0.6873779
vt 0.3126221 0.6873779
vt 0.1251221 0.6251221
vt 0.1873779 0.6251221
vt 0.1873779 0.6873779
vt 0.1251221 0.6873779
vt 0.06262207 0.6251221
vt 0.1248779 0.6251221
vt 0.1248779 0.6873779
vt 0.06262207 0.6873779
vt 0.0001220703 0.6251221
vt 0.06237793 0.6251221
vt 0.06237793 0.6873779
vt 0.0001220703 0.6873779
vt 0.1251221 0.5626221
vt 0.1873779 0.5626221
vt 0.1873779 0.6248779
vt 0.1251221 0.6248779
vt 0.06262207 0.5626221
vt 0.1248779 0.5626221
vt 0.1248779 0.6248779
vt 0.06262207 0.6248779
vt 0.0001220703 0.5626221
vt 0.06237793 0.5626221
vt 0.06237793 0.6248779
vt 0.0001220703 0.6248779
vt 0.3751221 0.5626221
vt 0.4373779 0.5626221
vt 0.4373779 0.6248779
vt 0.3751221 0.6248779
vt 0.3126221 0.5626221
vt 0.3748779 0.5626221
vt 0.3748779 0.6248779
vt 0.3126221 0.6248779
vt 0.2501221 0.5626221
vt 0.3123779 0.5626221
vt 0.3123779 0.6248779
vt 0.2501221 0.6248779
vt 0.3751221 0.5001221
vt 0.4373779 0.5001221
vt 0.4373779 0.5623779
vt 0.3751221 0.5623779
vt 0.3126221 0.5001221
vt 0.3748779 0.5001221
vt 0.3748779 0.5623779
vt 0.3126221 0.5623779
vt 0.2501221 0.5001221
vt 0.3123779 0.5001221
vt 0.3123779 0.5623779
vt 0.2501221 0.5623779
vt 0.1251221 0.9376221
vt 0.1873779 0.9376221
vt 0.1873779 0.9998779
vt 0.1251221 0.9998779
vt 0.1251221 0.6876221
vt 0.1873779 0.6876221
vt 0.1873779 0.7498779
vt 0.1251221 0.7498779
vt 0.1251221 0.5001221
vt 0.1873779 0.5001221
vt 0.1873779 0.5623779
vt 0.1251221 0.5623779
vt 0.06262207 0.5001221
vt 0.1248779 0.5001221
vt 0.1248779 0.5623779
vt 0.06262207 0.5623779
vt 0.0001220703 0.5001221
vt 0.06237793 0.5001221
vt 0.06237793 0.5623779
vt 0.0001220703 0.5623779
vt 0.2501221 0.3751221
vt 0.3123779 0.3751221
vt 0.3123779 0.4373779
vt 0.2501221 0.4373779
vt 0.1876221 0.3751221
vt 0.2498779 0.3751221
vt 0.2498779 0.4373779
vt 0.1876221 0.4373779
vt 0.1251221 0.3751221
vt 0.1873779 0.3751221
vt 0.1873779 0.4373779
vt 0.1251221 0.4373779
vt 0.06262207 0.3751221
vt 0.1248779 0.3751221
vt 0.1248779 0.4373779
vt 0.06262207 0.4373779
vt 0.2501221 0.3126221
vt 0.3123779 0.3126221
vt 0.3123779 0.3748779
vt 0.2501221 0.3748779
vt 0.1876221 0.3126221
vt 0.2498779 0.3126221
vt 0.2498779 0.3748779
vt 0.1876221 0.3748779
vt 0.1251221 0.3126221
vt 0.1873779 0.3126221
vt 0.1873779 0.3748779
vt 0.1251221 0.3748779
vt 0.06262207 0.3126221
vt 0.1248779 0.3126221
vt 0.1248779 0.3748779
vt 0.06262207 0.3748779
vt 0.3751221 0.6876221
vt 0.4373779 0.6876221
vt 0.4373779 0.7498779
vt 0.3751221 0.7498779

# Normal
vn 0 0 -1

# Groups (Count = 2)
g mesh_[07]_[00]
f  1/1/1  2/2/1  3/3/1  4/4/1 
f  5/5/1  1/6/1  4/7/1  6/8/1 
f  7/5/1  5/6/1  6/7/1  8/8/1 
f  9/5/1  7/6/1  8/7/1  10/8/1 
f  11/5/1  9/6/1  10/7/1  12/8/1 
f  13/5/1  11/6/1  12/7/1  14/8/1 
f  15/5/1  13/6/1  14/7/1  16/8/1 
f  17/5/1  15/6/1  16/7/1  18/8/1 
f  19/9/1  17/10/1  18/11/1  20/12/1 
f  21/13/1  19/14/1  20/15/1  22/16/1 
f  23/13/1  21/14/1  22/15/1  24/16/1 
f  25/13/1  23/14/1  24/15/1  26/16/1 
f  27/17/1  25/18/1  26/19/1  28/20/1 
f  29/21/1  30/22/1  17/23/1  19/24/1 
f  31/25/1  29/26/1  19/27/1  21/28/1 
f  32/25/1  31/26/1  21/27/1  23/28/1 
f  33/25/1  32/26/1  23/27/1  25/28/1 
f  34/29/1  33/30/1  25/31/1  27/32/1 
f  35/21/1  36/22/1  30/23/1  29/24/1 
f  37/25/1  35/26/1  29/27/1  31/28/1 
f  38/25/1  37/26/1  31/27/1  32/28/1 
f  39/25/1  38/26/1  32/27/1  33/28/1 
f  40/29/1  39/30/1  33/31/1  34/32/1 
f  41/21/1  42/22/1  36/23/1  35/24/1 
f  43/25/1  41/26/1  35/27/1  37/28/1 
f  44/25/1  43/26/1  37/27/1  38/28/1 
f  45/25/1  44/26/1  38/27/1  39/28/1 
f  46/29/1  45/30/1  39/31/1  40/32/1 
f  47/21/1  48/22/1  42/23/1  41/24/1 
f  49/25/1  47/26/1  41/27/1  43/28/1 
f  50/25/1  49/26/1  43/27/1  44/28/1 
f  51/25/1  50/26/1  44/27/1  45/28/1 
f  52/29/1  51/30/1  45/31/1  46/32/1 
f  53/21/1  54/22/1  48/23/1  47/24/1 
f  55/25/1  53/26/1  47/27/1  49/28/1 
f  56/25/1  55/26/1  49/27/1  50/28/1 
f  57/25/1  56/26/1  50/27/1  51/28/1 
f  58/29/1  57/30/1  51/31/1  52/32/1 
f  59/21/1  60/22/1  54/23/1  53/24/1 
f  61/25/1  59/26/1  53/27/1  55/28/1 
f  62/25/1  61/26/1  55/27/1  56/28/1 
f  63/25/1  62/26/1  56/27/1  57/28/1 
f  64/29/1  63/30/1  57/31/1  58/32/1 
f  65/21/1  66/22/1  60/23/1  59/24/1 
f  67/25/1  65/26/1  59/27/1  61/28/1 
f  68/25/1  67/26/1  61/27/1  62/28/1 
f  69/25/1  68/26/1  62/27/1  63/28/1 
f  70/29/1  69/30/1  63/31/1  64/32/1 
f  71/21/1  72/22/1  66/23/1  65/24/1 
f  73/25/1  71/26/1  65/27/1  67/28/1 
f  74/25/1  73/26/1  67/27/1  68/28/1 
f  75/25/1  74/26/1  68/27/1  69/28/1 
f  76/29/1  75/30/1  69/31/1  70/32/1 
f  77/21/1  78/22/1  72/23/1  71/24/1 
f  79/25/1  77/26/1  71/27/1  73/28/1 
f  80/25/1  79/26/1  73/27/1  74/28/1 
f  81/25/1  80/26/1  74/27/1  75/28/1 
f  82/29/1  81/30/1  75/31/1  76/32/1 
f  83/21/1  84/22/1  78/23/1  77/24/1 
f  85/25/1  83/26/1  77/27/1  79/28/1 
f  86/25/1  85/26/1  79/27/1  80/28/1 
f  87/25/1  86/26/1  80/27/1  81/28/1 
f  88/29/1  87/30/1  81/31/1  82/32/1 
f  89/21/1  90/22/1  84/23/1  83/24/1 
f  91/25/1  89/26/1  83/27/1  85/28/1 
f  92/25/1  91/26/1  85/27/1  86/28/1 
f  93/25/1  92/26/1  86/27/1  87/28/1 
f  94/29/1  93/30/1  87/31/1  88/32/1 
f  95/33/1  96/34/1  97/35/1  98/36/1 
f  99/37/1  95/38/1  98/39/1  100/40/1 
f  101/41/1  99/42/1  100/43/1  102/44/1 
f  103/33/1  104/34/1  105/35/1  106/36/1 
f  107/37/1  103/38/1  106/39/1  108/40/1 
f  109/41/1  107/42/1  108/43/1  110/44/1 
f  111/33/1  112/34/1  113/35/1  114/36/1 
f  115/37/1  111/38/1  114/39/1  116/40/1 
f  117/41/1  115/42/1  116/43/1  118/44/1 
f  119/33/1  120/34/1  121/35/1  122/36/1 
f  123/37/1  119/38/1  122/39/1  124/40/1 
f  125/41/1  123/42/1  124/43/1  126/44/1 
f  127/33/1  128/34/1  129/35/1  130/36/1 
f  131/37/1  127/38/1  130/39/1  132/40/1 
f  133/41/1  131/42/1  132/43/1  134/44/1 
f  135/33/1  136/34/1  137/35/1  138/36/1 
f  139/37/1  135/38/1  138/39/1  140/40/1 
f  141/41/1  139/42/1  140/43/1  142/44/1 
f  143/33/1  144/34/1  145/35/1  146/36/1 
f  147/37/1  143/38/1  146/39/1  148/40/1 
f  149/41/1  147/42/1  148/43/1  150/44/1 
f  151/21/1  152/22/1  90/23/1  89/24/1 
f  153/25/1  151/26/1  89/27/1  91/28/1 
f  154/25/1  153/26/1  91/27/1  92/28/1 
f  155/25/1  154/26/1  92/27/1  93/28/1 
f  156/29/1  155/30/1  93/31/1  94/32/1 
f  157/45/1  158/46/1  96/47/1  95/48/1 
f  159/49/1  157/50/1  95/51/1  99/52/1 
f  160/53/1  159/54/1  99/55/1  101/56/1 
f  161/45/1  162/46/1  104/47/1  103/48/1 
f  163/49/1  161/50/1  103/51/1  107/52/1 
f  164/53/1  163/54/1  107/55/1  109/56/1 
f  165/57/1  166/58/1  167/59/1  168/60/1 
f  169/45/1  170/46/1  112/47/1  111/48/1 
f  171/49/1  169/50/1  111/51/1  115/52/1 
f  172/53/1  171/54/1  115/55/1  117/56/1 
f  173/45/1  174/46/1  120/47/1  119/48/1 
f  175/49/1  173/50/1  119/51/1  123/52/1 
f  176/53/1  175/54/1  123/55/1  125/56/1 
f  177/45/1  178/46/1  128/47/1  127/48/1 
f  179/49/1  177/50/1  127/51/1  131/52/1 
f  180/53/1  179/54/1  131/55/1  133/56/1 
f  181/45/1  182/46/1  136/47/1  135/48/1 
f  183/49/1  181/50/1  135/51/1  139/52/1 
f  184/53/1  183/54/1  139/55/1  141/56/1 
f  185/45/1  186/46/1  144/47/1  143/48/1 
f  187/49/1  185/50/1  143/51/1  147/52/1 
f  188/53/1  187/54/1  147/55/1  149/56/1 
f  189/21/1  190/22/1  152/23/1  151/24/1 
f  191/25/1  189/26/1  151/27/1  153/28/1 
f  192/25/1  191/26/1  153/27/1  154/28/1 
f  193/25/1  192/26/1  154/27/1  155/28/1 
f  194/29/1  193/30/1  155/31/1  156/32/1 
f  195/57/1  196/58/1  158/59/1  157/60/1 
f  197/61/1  195/62/1  157/63/1  159/64/1 
f  198/61/1  199/62/1  161/63/1  163/64/1 
f  200/57/1  201/58/1  202/59/1  203/60/1 
f  204/57/1  205/58/1  206/59/1  166/60/1 
f  207/57/1  208/58/1  209/59/1  210/60/1 
f  211/57/1  207/58/1  210/59/1  212/60/1 
f  213/61/1  214/62/1  169/63/1  171/64/1 
f  215/61/1  216/62/1  173/63/1  175/64/1 
f  217/57/1  215/58/1  175/59/1  176/60/1 
f  218/61/1  219/62/1  177/63/1  179/64/1 
f  220/57/1  221/58/1  222/59/1  223/60/1 
f  224/57/1  225/58/1  226/59/1  227/60/1 
f  228/61/1  229/62/1  181/63/1  183/64/1 
f  230/57/1  231/58/1  232/59/1  233/60/1 
f  234/61/1  235/62/1  185/63/1  187/64/1 
f  236/21/1  237/22/1  190/23/1  189/24/1 
f  238/25/1  236/26/1  189/27/1  191/28/1 
f  239/25/1  238/26/1  191/27/1  192/28/1 
f  240/25/1  239/26/1  192/27/1  193/28/1 
f  241/29/1  240/30/1  193/31/1  194/32/1 
f  242/21/1  243/22/1  237/23/1  236/24/1 
f  244/25/1  242/26/1  236/27/1  238/28/1 
f  245/25/1  244/26/1  238/27/1  239/28/1 
f  246/25/1  245/26/1  239/27/1  240/28/1 
f  247/29/1  246/30/1  240/31/1  241/32/1 
f  248/21/1  249/22/1  243/23/1  242/24/1 
f  250/25/1  248/26/1  242/27/1  244/28/1 
f  251/25/1  250/26/1  244/27/1  245/28/1 
f  252/25/1  251/26/1  245/27/1  246/28/1 
f  253/29/1  252/30/1  246/31/1  247/32/1 
f  254/21/1  255/22/1  249/23/1  248/24/1 
f  256/25/1  254/26/1  248/27/1  250/28/1 
f  257/25/1  256/26/1  250/27/1  251/28/1 
f  258/25/1  257/26/1  251/27/1  252/28/1 
f  259/29/1  258/30/1  252/31/1  253/32/1 
f  260/21/1  261/22/1  255/23/1  254/24/1 
f  262/25/1  260/26/1  254/27/1  256/28/1 
f  263/25/1  262/26/1  256/27/1  257/28/1 
f  264/25/1  263/26/1  257/27/1  258/28/1 
f  265/29/1  264/30/1  258/31/1  259/32/1 
f  266/21/1  267/22/1  261/23/1  260/24/1 
f  268/25/1  266/26/1  260/27/1  262/28/1 
f  269/25/1  268/26/1  262/27/1  263/28/1 
f  270/25/1  269/26/1  263/27/1  264/28/1 
f  271/29/1  270/30/1  264/31/1  265/32/1 
f  272/65/1  273/66/1  267/67/1  266/68/1 
f  274/69/1  272/70/1  266/71/1  268/72/1 
f  275/69/1  274/70/1  268/71/1  269/72/1 
f  276/69/1  275/70/1  269/71/1  270/72/1 
f  277/73/1  276/74/1  270/75/1  271/76/1 
g mesh_[08]_[00]
f  278/77/1  279/78/1  280/79/1  281/80/1 
f  282/81/1  278/82/1  281/83/1  283/84/1 
f  284/85/1  282/86/1  283/87/1  285/88/1 
f  286/85/1  284/86/1  285/87/1  287/88/1 
f  288/85/1  286/86/1  287/87/1  289/88/1 
f  290/85/1  288/86/1  289/87/1  291/88/1 
f  292/89/1  290/90/1  291/91/1  293/92/1 
f  294/93/1  295/94/1  279/95/1  278/96/1 
f  296/97/1  294/98/1  278/99/1  282/100/1 
f  297/101/1  296/102/1  282/103/1  284/104/1 
f  298/101/1  297/102/1  284/103/1  286/104/1 
f  299/101/1  298/102/1  286/103/1  288/104/1 
f  300/101/1  299/102/1  288/103/1  290/104/1 
f  301/105/1  300/106/1  290/107/1  292/108/1 
f  302/93/1  303/94/1  295/95/1  294/96/1 
f  304/97/1  302/98/1  294/99/1  296/100/1 
f  305/101/1  304/102/1  296/103/1  297/104/1 
f  306/101/1  305/102/1  297/103/1  298/104/1 
f  307/101/1  306/102/1  298/103/1  299/104/1 
f  308/101/1  307/102/1  299/103/1  300/104/1 
f  309/105/1  308/106/1  300/107/1  301/108/1 
f  310/77/1  309/78/1  301/79/1  311/80/1 
f  312/81/1  310/82/1  311/83/1  313/84/1 
f  314/85/1  312/86/1  313/87/1  315/88/1 
f  316/89/1  314/90/1  315/91/1  317/92/1 
f  318/93/1  319/94/1  303/95/1  302/96/1 
f  320/97/1  318/98/1  302/99/1  304/100/1 
f  321/101/1  320/102/1  304/103/1  305/104/1 
f  322/101/1  321/102/1  305/103/1  306/104/1 
f  323/101/1  322/102/1  306/103/1  307/104/1 
f  324/101/1  323/102/1  307/103/1  308/104/1 
f  325/105/1  324/106/1  308/107/1  309/108/1 
f  326/93/1  325/94/1  309/95/1  310/96/1 
f  327/97/1  326/98/1  310/99/1  312/100/1 
f  328/101/1  327/102/1  312/103/1  314/104/1 
f  329/105/1  328/106/1  314/107/1  316/108/1 
f  330/93/1  331/94/1  319/95/1  318/96/1 
f  332/97/1  330/98/1  318/99/1  320/100/1 
f  333/101/1  332/102/1  320/103/1  321/104/1 
f  334/101/1  333/102/1  321/103/1  322/104/1 
f  335/101/1  334/102/1  322/103/1  323/104/1 
f  336/101/1  335/102/1  323/103/1  324/104/1 
f  337/105/1  336/106/1  324/107/1  325/108/1 
f  338/93/1  337/94/1  325/95/1  326/96/1 
f  339/97/1  338/98/1  326/99/1  327/100/1 
f  340/101/1  339/102/1  327/103/1  328/104/1 
f  341/105/1  340/106/1  328/107/1  329/108/1 
f  342/77/1  341/78/1  329/79/1  343/80/1 
f  344/81/1  342/82/1  343/83/1  345/84/1 
f  346/85/1  344/86/1  345/87/1  347/88/1 
f  348/89/1  346/90/1  347/91/1  349/92/1 
f  350/109/1  351/110/1  352/111/1  353/112/1 
f  354/109/1  350/110/1  353/111/1  355/112/1 
f  356/109/1  354/110/1  355/111/1  357/112/1 
f  358/109/1  356/110/1  357/111/1  359/112/1 
f  360/109/1  358/110/1  359/111/1  361/112/1 
f  362/109/1  360/110/1  361/111/1  363/112/1 
f  364/109/1  362/110/1  363/111/1  365/112/1 
f  366/109/1  367/110/1  368/111/1  369/112/1 
f  370/109/1  366/110/1  369/111/1  371/112/1 
f  372/109/1  370/110/1  371/111/1  373/112/1 
f  374/109/1  372/110/1  373/111/1  375/112/1 
f  376/109/1  374/110/1  375/111/1  377/112/1 
f  378/109/1  376/110/1  377/111/1  379/112/1 
f  380/109/1  378/110/1  379/111/1  381/112/1 
f  382/93/1  383/94/1  331/95/1  330/96/1 
f  384/97/1  382/98/1  330/99/1  332/100/1 
f  385/101/1  384/102/1  332/103/1  333/104/1 
f  386/101/1  385/102/1  333/103/1  334/104/1 
f  387/101/1  386/102/1  334/103/1  335/104/1 
f  388/101/1  387/102/1  335/103/1  336/104/1 
f  389/105/1  388/106/1  336/107/1  337/108/1 
f  390/93/1  389/94/1  337/95/1  338/96/1 
f  391/97/1  390/98/1  338/99/1  339/100/1 
f  392/101/1  391/102/1  339/103/1  340/104/1 
f  393/105/1  392/106/1  340/107/1  341/108/1 
f  394/93/1  393/94/1  341/95/1  342/96/1 
f  395/97/1  394/98/1  342/99/1  344/100/1 
f  396/101/1  395/102/1  344/103/1  346/104/1 
f  397/105/1  396/106/1  346/107/1  348/108/1 
f  398/109/1  399/110/1  400/111/1  351/112/1 
f  401/109/1  398/110/1  351/111/1  350/112/1 
f  402/109/1  401/110/1  350/111/1  354/112/1 
f  403/109/1  402/110/1  354/111/1  356/112/1 
f  404/109/1  403/110/1  356/111/1  358/112/1 
f  405/109/1  404/110/1  358/111/1  360/112/1 
f  406/109/1  405/110/1  360/111/1  362/112/1 
f  407/109/1  406/110/1  362/111/1  364/112/1 
f  408/109/1  407/110/1  364/111/1  409/112/1 
f  410/109/1  411/110/1  412/111/1  367/112/1 
f  413/109/1  410/110/1  367/111/1  366/112/1 
f  414/109/1  413/110/1  366/111/1  370/112/1 
f  415/109/1  414/110/1  370/111/1  372/112/1 
f  416/109/1  415/110/1  372/111/1  374/112/1 
f  417/109/1  416/110/1  374/111/1  376/112/1 
f  418/109/1  417/110/1  376/111/1  378/112/1 
f  419/109/1  418/110/1  378/111/1  380/112/1 
f  420/109/1  419/110/1  380/111/1  421/112/1 
f  422/93/1  423/94/1  383/95/1  382/96/1 
f  424/97/1  422/98/1  382/99/1  384/100/1 
f  425/101/1  424/102/1  384/103/1  385/104/1 
f  426/101/1  425/102/1  385/103/1  386/104/1 
f  427/101/1  426/102/1  386/103/1  387/104/1 
f  428/101/1  427/102/1  387/103/1  388/104/1 
f  429/105/1  428/106/1  388/107/1  389/108/1 
f  430/93/1  429/94/1  389/95/1  390/96/1 
f  431/97/1  430/98/1  390/99/1  391/100/1 
f  432/101/1  431/102/1  391/103/1  392/104/1 
f  433/105/1  432/106/1  392/107/1  393/108/1 
f  434/93/1  433/94/1  393/95/1  394/96/1 
f  435/97/1  434/98/1  394/99/1  395/100/1 
f  436/101/1  435/102/1  395/103/1  396/104/1 
f  437/105/1  436/106/1  396/107/1  397/108/1 
f  438/77/1  437/78/1  397/79/1  439/80/1 
f  440/81/1  438/82/1  439/83/1  441/84/1 
f  442/85/1  440/86/1  441/87/1  443/88/1 
f  444/89/1  442/90/1  443/91/1  445/92/1 
f  446/109/1  165/110/1  168/111/1  399/112/1 
f  447/109/1  446/110/1  399/111/1  398/112/1 
f  448/109/1  447/110/1  398/111/1  401/112/1 
f  449/109/1  448/110/1  401/111/1  402/112/1 
f  450/109/1  449/110/1  402/111/1  403/112/1 
f  451/109/1  450/110/1  403/111/1  404/112/1 
f  452/109/1  451/110/1  404/111/1  405/112/1 
f  453/109/1  452/110/1  405/111/1  406/112/1 
f  454/109/1  453/110/1  406/111/1  407/112/1 
f  455/109/1  454/110/1  407/111/1  408/112/1 
f  456/109/1  455/110/1  408/111/1  457/112/1 
f  458/109/1  459/110/1  460/111/1  411/112/1 
f  461/109/1  458/110/1  411/111/1  410/112/1 
f  462/109/1  461/110/1  410/111/1  413/112/1 
f  463/109/1  462/110/1  413/111/1  414/112/1 
f  464/109/1  463/110/1  414/111/1  415/112/1 
f  465/109/1  464/110/1  415/111/1  416/112/1 
f  466/109/1  465/110/1  416/111/1  417/112/1 
f  467/109/1  466/110/1  417/111/1  418/112/1 
f  468/109/1  467/110/1  418/111/1  419/112/1 
f  469/109/1  468/110/1  419/111/1  420/112/1 
f  470/109/1  469/110/1  420/111/1  471/112/1 
f  472/93/1  473/94/1  423/95/1  422/96/1 
f  474/97/1  472/98/1  422/99/1  424/100/1 
f  475/101/1  474/102/1  424/103/1  425/104/1 
f  476/101/1  475/102/1  425/103/1  426/104/1 
f  477/101/1  476/102/1  426/103/1  427/104/1 
f  478/101/1  477/102/1  427/103/1  428/104/1 
f  479/105/1  478/106/1  428/107/1  429/108/1 
f  480/93/1  479/94/1  429/95/1  430/96/1 
f  481/97/1  480/98/1  430/99/1  431/100/1 
f  482/101/1  481/102/1  431/103/1  432/104/1 
f  483/105/1  482/106/1  432/107/1  433/108/1 
f  484/93/1  483/94/1  433/95/1  434/96/1 
f  485/97/1  484/98/1  434/99/1  435/100/1 
f  486/101/1  485/102/1  435/103/1  436/104/1 
f  487/105/1  486/106/1  436/107/1  437/108/1 
f  488/93/1  487/94/1  437/95/1  438/96/1 
f  489/97/1  488/98/1  438/99/1  440/100/1 
f  490/101/1  489/102/1  440/103/1  442/104/1 
f  491/105/1  490/106/1  442/107/1  444/108/1 
f  492/109/1  204/110/1  166/111/1  165/112/1 
f  493/109/1  492/110/1  165/111/1  446/112/1 
f  494/109/1  493/110/1  446/111/1  447/112/1 
f  495/109/1  494/110/1  447/111/1  448/112/1 
f  496/109/1  495/110/1  448/111/1  449/112/1 
f  497/109/1  496/110/1  449/111/1  450/112/1 
f  498/109/1  497/110/1  450/111/1  451/112/1 
f  499/109/1  498/110/1  451/111/1  452/112/1 
f  500/109/1  499/110/1  452/111/1  453/112/1 
f  501/109/1  500/110/1  453/111/1  454/112/1 
f  502/109/1  501/110/1  454/111/1  455/112/1 
f  503/109/1  502/110/1  455/111/1  456/112/1 
f  208/109/1  503/110/1  456/111/1  209/112/1 
f  504/109/1  505/110/1  506/111/1  459/112/1 
f  507/109/1  504/110/1  459/111/1  458/112/1 
f  508/109/1  507/110/1  458/111/1  461/112/1 
f  509/109/1  508/110/1  461/111/1  462/112/1 
f  510/109/1  509/110/1  462/111/1  463/112/1 
f  511/109/1  510/110/1  463/111/1  464/112/1 
f  512/109/1  511/110/1  464/111/1  465/112/1 
f  513/109/1  512/110/1  465/111/1  466/112/1 
f  514/109/1  513/110/1  466/111/1  467/112/1 
f  515/109/1  514/110/1  467/111/1  468/112/1 
f  516/109/1  515/110/1  468/111/1  469/112/1 
f  517/109/1  516/110/1  469/111/1  470/112/1 
f  518/109/1  517/110/1  470/111/1  519/112/1 
f  520/9/1  521/10/1  522/11/1  523/12/1 
f  524/13/1  520/14/1  523/15/1  525/16/1 
f  526/13/1  524/14/1  525/15/1  527/16/1 
f  528/13/1  526/14/1  527/15/1  529/16/1 
f  530/13/1  528/14/1  529/15/1  531/16/1 
f  532/13/1  530/14/1  531/15/1  473/16/1 
f  533/13/1  532/14/1  473/15/1  472/16/1 
f  534/13/1  533/14/1  472/15/1  474/16/1 
f  535/13/1  534/14/1  474/15/1  475/16/1 
f  536/13/1  535/14/1  475/15/1  476/16/1 
f  537/13/1  536/14/1  476/15/1  477/16/1 
f  538/13/1  537/14/1  477/15/1  478/16/1 
f  539/13/1  538/14/1  478/15/1  479/16/1 
f  540/13/1  539/14/1  479/15/1  480/16/1 
f  541/13/1  540/14/1  480/15/1  481/16/1 
f  542/13/1  541/14/1  481/15/1  482/16/1 
f  543/13/1  542/14/1  482/15/1  483/16/1 
f  544/13/1  543/14/1  483/15/1  484/16/1 
f  545/13/1  544/14/1  484/15/1  485/16/1 
f  546/13/1  545/14/1  485/15/1  486/16/1 
f  547/13/1  546/14/1  486/15/1  487/16/1 
f  548/13/1  547/14/1  487/15/1  488/16/1 
f  549/13/1  548/14/1  488/15/1  489/16/1 
f  550/13/1  549/14/1  489/15/1  490/16/1 
f  551/13/1  550/14/1  490/15/1  491/16/1 
f  552/13/1  551/14/1  491/15/1  553/16/1 
f  554/13/1  552/14/1  553/15/1  555/16/1 
f  556/13/1  554/14/1  555/15/1  557/16/1 
f  558/13/1  556/14/1  557/15/1  559/16/1 
f  560/13/1  558/14/1  559/15/1  561/16/1 
f  562/13/1  560/14/1  561/15/1  563/16/1 
f  564/13/1  562/14/1  563/15/1  196/16/1 
f  565/13/1  564/14/1  196/15/1  195/16/1 
f  566/13/1  565/14/1  195/15/1  197/16/1 
f  567/13/1  566/14/1  197/15/1  568/16/1 
f  569/13/1  567/14/1  568/15/1  570/16/1 
f  571/13/1  569/14/1  570/15/1  199/16/1 
f  572/13/1  571/14/1  199/15/1  198/16/1 
f  573/13/1  572/14/1  198/15/1  574/16/1 
f  575/13/1  573/14/1  574/15/1  201/16/1 
f  576/13/1  575/14/1  201/15/1  200/16/1 
f  577/13/1  576/14/1  200/15/1  578/16/1 
f  579/13/1  577/14/1  578/15/1  580/16/1 
f  581/13/1  579/14/1  580/15/1  582/16/1 
f  583/13/1  581/14/1  582/15/1  584/16/1 
f  585/13/1  583/14/1  584/15/1  586/16/1 
f  587/13/1  585/14/1  586/15/1  205/16/1 
f  588/13/1  587/14/1  205/15/1  204/16/1 
f  589/13/1  588/14/1  204/15/1  492/16/1 
f  590/13/1  589/14/1  492/15/1  493/16/1 
f  591/13/1  590/14/1  493/15/1  494/16/1 
f  592/13/1  591/14/1  494/15/1  495/16/1 
f  593/13/1  592/14/1  495/15/1  496/16/1 
f  594/13/1  593/14/1  496/15/1  497/16/1 
f  595/13/1  594/14/1  497/15/1  498/16/1 
f  596/13/1  595/14/1  498/15/1  499/16/1 
f  597/13/1  596/14/1  499/15/1  500/16/1 
f  598/13/1  597/14/1  500/15/1  501/16/1 
f  599/13/1  598/14/1  501/15/1  502/16/1 
f  600/13/1  599/14/1  502/15/1  503/16/1 
f  601/13/1  600/14/1  503/15/1  208/16/1 
f  602/13/1  601/14/1  208/15/1  207/16/1 
f  603/13/1  602/14/1  207/15/1  211/16/1 
f  604/13/1  603/14/1  211/15/1  605/16/1 
f  606/13/1  604/14/1  605/15/1  214/16/1 
f  607/13/1  606/14/1  214/15/1  213/16/1 
f  608/13/1  607/14/1  213/15/1  609/16/1 
f  610/13/1  608/14/1  609/15/1  611/16/1 
f  612/13/1  610/14/1  611/15/1  613/16/1 
f  614/13/1  612/14/1  613/15/1  615/16/1 
f  616/13/1  614/14/1  615/15/1  617/16/1 
f  618/13/1  616/14/1  617/15/1  216/16/1 
f  619/13/1  618/14/1  216/15/1  215/16/1 
f  620/13/1  619/14/1  215/15/1  217/16/1 
f  621/13/1  620/14/1  217/15/1  622/16/1 
f  623/13/1  621/14/1  622/15/1  624/16/1 
f  625/13/1  623/14/1  624/15/1  626/16/1 
f  627/13/1  625/14/1  626/15/1  628/16/1 
f  629/13/1  627/14/1  628/15/1  505/16/1 
f  630/13/1  629/14/1  505/15/1  504/16/1 
f  631/13/1  630/14/1  504/15/1  507/16/1 
f  632/13/1  631/14/1  507/15/1  508/16/1 
f  633/13/1  632/14/1  508/15/1  509/16/1 
f  634/13/1  633/14/1  509/15/1  510/16/1 
f  635/13/1  634/14/1  510/15/1  511/16/1 
f  636/13/1  635/14/1  511/15/1  512/16/1 
f  637/13/1  636/14/1  512/15/1  513/16/1 
f  638/13/1  637/14/1  513/15/1  514/16/1 
f  639/13/1  638/14/1  514/15/1  515/16/1 
f  640/13/1  639/14/1  515/15/1  516/16/1 
f  641/13/1  640/14/1  516/15/1  517/16/1 
f  642/13/1  641/14/1  517/15/1  518/16/1 
f  643/13/1  642/14/1  518/15/1  644/16/1 
f  645/13/1  643/14/1  644/15/1  646/16/1 
f  647/13/1  645/14/1  646/15/1  648/16/1 
f  649/13/1  647/14/1  648/15/1  650/16/1 
f  651/13/1  649/14/1  650/15/1  652/16/1 
f  653/13/1  651/14/1  652/15/1  654/16/1 
f  655/13/1  653/14/1  654/15/1  656/16/1 
f  657/13/1  655/14/1  656/15/1  658/16/1 
f  659/13/1  657/14/1  658/15/1  219/16/1 
f  660/13/1  659/14/1  219/15/1  218/16/1 
f  661/13/1  660/14/1  218/15/1  662/16/1 
f  663/13/1  661/14/1  662/15/1  221/16/1 
f  664/13/1  663/14/1  221/15/1  220/16/1 
f  665/13/1  664/14/1  220/15/1  666/16/1 
f  667/13/1  665/14/1  666/15/1  225/16/1 
f  668/13/1  667/14/1  225/15/1  224/16/1 
f  669/13/1  668/14/1  224/15/1  670/16/1 
f  671/13/1  669/14/1  670/15/1  672/16/1 
f  673/13/1  671/14/1  672/15/1  674/16/1 
f  675/13/1  673/14/1  674/15/1  676/16/1 
f  677/13/1  675/14/1  676/15/1  678/16/1 
f  679/13/1  677/14/1  678/15/1  680/16/1 
f  681/13/1  679/14/1  680/15/1  682/16/1 
f  683/13/1  681/14/1  682/15/1  229/16/1 
f  684/13/1  683/14/1  229/15/1  228/16/1 
f  685/13/1  684/14/1  228/15/1  686/16/1 
f  687/13/1  685/14/1  686/15/1  688/16/1 
f  689/13/1  687/14/1  688/15/1  690/16/1 
f  691/13/1  689/14/1  690/15/1  231/16/1 
f  692/13/1  691/14/1  231/15/1  230/16/1 
f  693/13/1  692/14/1  230/15/1  694/16/1 
f  695/13/1  693/14/1  694/15/1  696/16/1 
f  697/13/1  695/14/1  696/15/1  698/16/1 
f  699/13/1  697/14/1  698/15/1  700/16/1 
f  701/13/1  699/14/1  700/15/1  235/16/1 
f  702/13/1  701/14/1  235/15/1  234/16/1 
f  703/13/1  702/14/1  234/15/1  704/16/1 
f  705/13/1  703/14/1  704/15/1  706/16/1 
f  707/13/1  705/14/1  706/15/1  708/16/1 
f  709/13/1  707/14/1  708/15/1  710/16/1 
f  243/17/1  709/18/1  710/19/1  237/20/1 
f  711/21/1  712/22/1  521/23/1  520/24/1 
f  713/25/1  711/26/1  520/27/1  524/28/1 
f  714/25/1  713/26/1  524/27/1  526/28/1 
f  715/25/1  714/26/1  526/27/1  528/28/1 
f  716/25/1  715/26/1  528/27/1  530/28/1 
f  717/25/1  716/26/1  530/27/1  532/28/1 
f  718/25/1  717/26/1  532/27/1  533/28/1 
f  719/25/1  718/26/1  533/27/1  534/28/1 
f  720/25/1  719/26/1  534/27/1  535/28/1 
f  721/25/1  720/26/1  535/27/1  536/28/1 
f  722/25/1  721/26/1  536/27/1  537/28/1 
f  723/25/1  722/26/1  537/27/1  538/28/1 
f  724/25/1  723/26/1  538/27/1  539/28/1 
f  725/25/1  724/26/1  539/27/1  540/28/1 
f  726/25/1  725/26/1  540/27/1  541/28/1 
f  727/25/1  726/26/1  541/27/1  542/28/1 
f  728/25/1  727/26/1  542/27/1  543/28/1 
f  729/25/1  728/26/1  543/27/1  544/28/1 
f  730/25/1  729/26/1  544/27/1  545/28/1 
f  731/25/1  730/26/1  545/27/1  546/28/1 
f  732/25/1  731/26/1  546/27/1  547/28/1 
f  733/25/1  732/26/1  547/27/1  548/28/1 
f  734/25/1  733/26/1  548/27/1  549/28/1 
f  735/25/1  734/26/1  549/27/1  550/28/1 
f  736/25/1  735/26/1  550/27/1  551/28/1 
f  737/25/1  736/26/1  551/27/1  552/28/1 
f  738/25/1  737/26/1  552/27/1  554/28/1 
f  739/25/1  738/26/1  554/27/1  556/28/1 
f  740/25/1  739/26/1  556/27/1  558/28/1 
f  741/25/1  740/26/1  558/27/1  560/28/1 
f  742/25/1  741/26/1  560/27/1  562/28/1 
f  743/25/1  742/26/1  562/27/1  564/28/1 
f  744/25/1  743/26/1  564/27/1  565/28/1 
f  745/25/1  744/26/1  565/27/1  566/28/1 
f  746/25/1  745/26/1  566/27/1  567/28/1 
f  747/25/1  746/26/1  567/27/1  569/28/1 
f  748/25/1  747/26/1  569/27/1  571/28/1 
f  749/25/1  748/26/1  571/27/1  572/28/1 
f  750/25/1  749/26/1  572/27/1  573/28/1 
f  751/25/1  750/26/1  573/27/1  575/28/1 
f  752/25/1  751/26/1  575/27/1  576/28/1 
f  753/25/1  752/26/1  576/27/1  577/28/1 
f  754/25/1  753/26/1  577/27/1  579/28/1 
f  755/25/1  754/26/1  579/27/1  581/28/1 
f  756/25/1  755/26/1  581/27/1  583/28/1 
f  757/25/1  756/26/1  583/27/1  585/28/1 
f  758/25/1  757/26/1  585/27/1  587/28/1 
f  759/25/1  758/26/1  587/27/1  588/28/1 
f  760/25/1  759/26/1  588/27/1  589/28/1 
f  761/25/1  760/26/1  589/27/1  590/28/1 
f  762/25/1  761/26/1  590/27/1  591/28/1 
f  763/25/1  762/26/1  591/27/1  592/28/1 
f  764/25/1  763/26/1  592/27/1  593/28/1 
f  765/25/1  764/26/1  593/27/1  594/28/1 
f  766/25/1  765/26/1  594/27/1  595/28/1 
f  767/25/1  766/26/1  595/27/1  596/28/1 
f  768/25/1  767/26/1  596/27/1  597/28/1 
f  769/25/1  768/26/1  597/27/1  598/28/1 
f  770/25/1  769/26/1  598/27/1  599/28/1 
f  771/25/1  770/26/1  599/27/1  600/28/1 
f  772/25/1  771/26/1  600/27/1  601/28/1 
f  773/25/1  772/26/1  601/27/1  602/28/1 
f  774/25/1  773/26/1  602/27/1  603/28/1 
f  775/25/1  774/26/1  603/27/1  604/28/1 
f  776/25/1  775/26/1  604/27/1  606/28/1 
f  777/25/1  776/26/1  606/27/1  607/28/1 
f  778/25/1  777/26/1  607/27/1  608/28/1 
f  779/25/1  778/26/1  608/27/1  610/28/1 
f  780/25/1  779/26/1  610/27/1  612/28/1 
f  781/25/1  780/26/1  612/27/1  614/28/1 
f  782/25/1  781/26/1  614/27/1  616/28/1 
f  783/25/1  782/26/1  616/27/1  618/28/1 
f  784/25/1  783/26/1  618/27/1  619/28/1 
f  785/25/1  784/26/1  619/27/1  620/28/1 
f  786/25/1  785/26/1  620/27/1  621/28/1 
f  787/25/1  786/26/1  621/27/1  623/28/1 
f  788/25/1  787/26/1  623/27/1  625/28/1 
f  789/25/1  788/26/1  625/27/1  627/28/1 
f  790/25/1  789/26/1  627/27/1  629/28/1 
f  791/25/1  790/26/1  629/27/1  630/28/1 
f  792/25/1  791/26/1  630/27/1  631/28/1 
f  793/25/1  792/26/1  631/27/1  632/28/1 
f  794/25/1  793/26/1  632/27/1  633/28/1 
f  795/25/1  794/26/1  633/27/1  634/28/1 
f  796/25/1  795/26/1  634/27/1  635/28/1 
f  797/25/1  796/26/1  635/27/1  636/28/1 
f  798/25/1  797/26/1  636/27/1  637/28/1 
f  799/25/1  798/26/1  637/27/1  638/28/1 
f  800/25/1  799/26/1  638/27/1  639/28/1 
f  801/25/1  800/26/1  639/27/1  640/28/1 
f  802/25/1  801/26/1  640/27/1  641/28/1 
f  803/25/1  802/26/1  641/27/1  642/28/1 
f  804/25/1  803/26/1  642/27/1  643/28/1 
f  805/25/1  804/26/1  643/27/1  645/28/1 
f  806/25/1  805/26/1  645/27/1  647/28/1 
f  807/25/1  806/26/1  647/27/1  649/28/1 
f  808/25/1  807/26/1  649/27/1  651/28/1 
f  809/25/1  808/26/1  651/27/1  653/28/1 
f  810/25/1  809/26/1  653/27/1  655/28/1 
f  811/25/1  810/26/1  655/27/1  657/28/1 
f  812/25/1  811/26/1  657/27/1  659/28/1 
f  813/25/1  812/26/1  659/27/1  660/28/1 
f  814/25/1  813/26/1  660/27/1  661/28/1 
f  815/25/1  814/26/1  661/27/1  663/28/1 
f  816/25/1  815/26/1  663/27/1  664/28/1 
f  817/25/1  816/26/1  664/27/1  665/28/1 
f  818/25/1  817/26/1  665/27/1  667/28/1 
f  819/25/1  818/26/1  667/27/1  668/28/1 
f  820/25/1  819/26/1  668/27/1  669/28/1 
f  821/25/1  820/26/1  669/27/1  671/28/1 
f  822/25/1  821/26/1  671/27/1  673/28/1 
f  823/25/1  822/26/1  673/27/1  675/28/1 
f  824/25/1  823/26/1  675/27/1  677/28/1 
f  825/25/1  824/26/1  677/27/1  679/28/1 
f  826/25/1  825/26/1  679/27/1  681/28/1 
f  827/25/1  826/26/1  681/27/1  683/28/1 
f  828/25/1  827/26/1  683/27/1  684/28/1 
f  829/25/1  828/26/1  684/27/1  685/28/1 
f  830/25/1  829/26/1  685/27/1  687/28/1 
f  831/25/1  830/26/1  687/27/1  689/28/1 
f  832/25/1  831/26/1  689/27/1  691/28/1 
f  833/25/1  832/26/1  691/27/1  692/28/1 
f  834/25/1  833/26/1  692/27/1  693/28/1 
f  835/25/1  834/26/1  693/27/1  695/28/1 
f  836/25/1  835/26/1  695/27/1  697/28/1 
f  837/25/1  836/26/1  697/27/1  699/28/1 
f  838/25/1  837/26/1  699/27/1  701/28/1 
f  839/25/1  838/26/1  701/27/1  702/28/1 
f  840/25/1  839/26/1  702/27/1  703/28/1 
f  841/25/1  840/26/1  703/27/1  705/28/1 
f  842/25/1  841/26/1  705/27/1  707/28/1 
f  843/25/1  842/26/1  707/27/1  709/28/1 
f  249/29/1  843/30/1  709/31/1  243/32/1 
f  844/21/1  845/22/1  712/23/1  711/24/1 
f  846/25/1  844/26/1  711/27/1  713/28/1 
f  847/25/1  846/26/1  713/27/1  714/28/1 
f  848/25/1  847/26/1  714/27/1  715/28/1 
f  849/25/1  848/26/1  715/27/1  716/28/1 
f  850/25/1  849/26/1  716/27/1  717/28/1 
f  851/25/1  850/26/1  717/27/1  718/28/1 
f  852/25/1  851/26/1  718/27/1  719/28/1 
f  853/25/1  852/26/1  719/27/1  720/28/1 
f  854/25/1  853/26/1  720/27/1  721/28/1 
f  855/25/1  854/26/1  721/27/1  722/28/1 
f  856/25/1  855/26/1  722/27/1  723/28/1 
f  857/25/1  856/26/1  723/27/1  724/28/1 
f  858/25/1  857/26/1  724/27/1  725/28/1 
f  859/25/1  858/26/1  725/27/1  726/28/1 
f  860/25/1  859/26/1  726/27/1  727/28/1 
f  861/25/1  860/26/1  727/27/1  728/28/1 
f  862/25/1  861/26/1  728/27/1  729/28/1 
f  863/25/1  862/26/1  729/27/1  730/28/1 
f  864/25/1  863/26/1  730/27/1  731/28/1 
f  865/25/1  864/26/1  731/27/1  732/28/1 
f  866/25/1  865/26/1  732/27/1  733/28/1 
f  867/25/1  866/26/1  733/27/1  734/28/1 
f  868/25/1  867/26/1  734/27/1  735/28/1 
f  869/25/1  868/26/1  735/27/1  736/28/1 
f  870/25/1  869/26/1  736/27/1  737/28/1 
f  871/25/1  870/26/1  737/27/1  738/28/1 
f  872/25/1  871/26/1  738/27/1  739/28/1 
f  873/25/1  872/26/1  739/27/1  740/28/1 
f  874/25/1  873/26/1  740/27/1  741/28/1 
f  875/25/1  874/26/1  741/27/1  742/28/1 
f  876/25/1  875/26/1  742/27/1  743/28/1 
f  877/25/1  876/26/1  743/27/1  744/28/1 
f  878/25/1  877/26/1  744/27/1  745/28/1 
f  879/25/1  878/26/1  745/27/1  746/28/1 
f  880/25/1  879/26/1  746/27/1  747/28/1 
f  881/25/1  880/26/1  747/27/1  748/28/1 
f  882/25/1  881/26/1  748/27/1  749/28/1 
f  883/25/1  882/26/1  749/27/1  750/28/1 
f  884/25/1  883/26/1  750/27/1  751/28/1 
f  885/25/1  884/26/1  751/27/1  752/28/1 
f  886/25/1  885/26/1  752/27/1  753/28/1 
f  887/25/1  886/26/1  753/27/1  754/28/1 
f  888/25/1  887/26/1  754/27/1  755/28/1 
f  889/25/1  888/26/1  755/27/1  756/28/1 
f  890/25/1  889/26/1  756/27/1  757/28/1 
f  891/25/1  890/26/1  757/27/1  758/28/1 
f  892/25/1  891/26/1  758/27/1  759/28/1 
f  893/25/1  892/26/1  759/27/1  760/28/1 
f  894/25/1  893/26/1  760/27/1  761/28/1 
f  895/25/1  894/26/1  761/27/1  762/28/1 
f  896/25/1  895/26/1  762/27/1  763/28/1 
f  897/25/1  896/26/1  763/27/1  764/28/1 
f  898/25/1  897/26/1  764/27/1  765/28/1 
f  899/25/1  898/26/1  765/27/1  766/28/1 
f  900/25/1  899/26/1  766/27/1  767/28/1 
f  901/25/1  900/26/1  767/27/1  768/28/1 
f  902/25/1  901/26/1  768/27/1  769/28/1 
f  903/25/1  902/26/1  769/27/1  770/28/1 
f  904/25/1  903/26/1  770/27/1  771/28/1 
f  905/25/1  904/26/1  771/27/1  772/28/1 
f  906/25/1  905/26/1  772/27/1  773/28/1 
f  907/25/1  906/26/1  773/27/1  774/28/1 
f  908/25/1  907/26/1  774/27/1  775/28/1 
f  909/25/1  908/26/1  775/27/1  776/28/1 
f  910/25/1  909/26/1  776/27/1  777/28/1 
f  911/25/1  910/26/1  777/27/1  778/28/1 
f  912/25/1  911/26/1  778/27/1  779/28/1 
f  913/25/1  912/26/1  779/27/1  780/28/1 
f  914/25/1  913/26/1  780/27/1  781/28/1 
f  915/25/1  914/26/1  781/27/1  782/28/1 
f  916/25/1  915/26/1  782/27/1  783/28/1 
f  917/25/1  916/26/1  783/27/1  784/28/1 
f  918/25/1  917/26/1  784/27/1  785/28/1 
f  919/25/1  918/26/1  785/27/1  786/28/1 
f  920/25/1  919/26/1  786/27/1  787/28/1 
f  921/25/1  920/26/1  787/27/1  788/28/1 
f  922/25/1  921/26/1  788/27/1  789/28/1 
f  923/25/1  922/26/1  789/27/1  790/28/1 
f  924/25/1  923/26/1  790/27/1  791/28/1 
f  925/25/1  924/26/1  791/27/1  792/28/1 
f  926/25/1  925/26/1  792/27/1  793/28/1 
f  927/25/1  926/26/1  793/27/1  794/28/1 
f  928/25/1  927/26/1  794/27/1  795/28/1 
f  929/25/1  928/26/1  795/27/1  796/28/1 
f  930/25/1  929/26/1  796/27/1  797/28/1 
f  931/25/1  930/26/1  797/27/1  798/28/1 
f  932/25/1  931/26/1  798/27/1  799/28/1 
f  933/25/1  932/26/1  799/27/1  800/28/1 
f  934/25/1  933/26/1  800/27/1  801/28/1 
f  935/25/1  934/26/1  801/27/1  802/28/1 
f  936/25/1  935/26/1  802/27/1  803/28/1 
f  937/25/1  936/26/1  803/27/1  804/28/1 
f  938/25/1  937/26/1  804/27/1  805/28/1 
f  939/25/1  938/26/1  805/27/1  806/28/1 
f  940/25/1  939/26/1  806/27/1  807/28/1 
f  941/25/1  940/26/1  807/27/1  808/28/1 
f  942/25/1  941/26/1  808/27/1  809/28/1 
f  943/25/1  942/26/1  809/27/1  810/28/1 
f  944/25/1  943/26/1  810/27/1  811/28/1 
f  945/25/1  944/26/1  811/27/1  812/28/1 
f  946/25/1  945/26/1  812/27/1  813/28/1 
f  947/25/1  946/26/1  813/27/1  814/28/1 
f  948/25/1  947/26/1  814/27/1  815/28/1 
f  949/25/1  948/26/1  815/27/1  816/28/1 
f  950/25/1  949/26/1  816/27/1  817/28/1 
f  951/25/1  950/26/1  817/27/1  818/28/1 
f  952/25/1  951/26/1  818/27/1  819/28/1 
f  953/25/1  952/26/1  819/27/1  820/28/1 
f  954/25/1  953/26/1  820/27/1  821/28/1 
f  955/25/1  954/26/1  821/27/1  822/28/1 
f  956/25/1  955/26/1  822/27/1  823/28/1 
f  957/25/1  956/26/1  823/27/1  824/28/1 
f  958/25/1  957/26/1  824/27/1  825/28/1 
f  959/25/1  958/26/1  825/27/1  826/28/1 
f  960/25/1  959/26/1  826/27/1  827/28/1 
f  961/25/1  960/26/1  827/27/1  828/28/1 
f  962/25/1  961/26/1  828/27/1  829/28/1 
f  963/25/1  962/26/1  829/27/1  830/28/1 
f  964/25/1  963/26/1  830/27/1  831/28/1 
f  965/25/1  964/26/1  831/27/1  832/28/1 
f  966/25/1  965/26/1  832/27/1  833/28/1 
f  967/25/1  966/26/1  833/27/1  834/28/1 
f  968/25/1  967/26/1  834/27/1  835/28/1 
f  969/25/1  968/26/1  835/27/1  836/28/1 
f  970/25/1  969/26/1  836/27/1  837/28/1 
f  971/25/1  970/26/1  837/27/1  838/28/1 
f  972/25/1  971/26/1  838/27/1  839/28/1 
f  973/25/1  972/26/1  839/27/1  840/28/1 
f  974/25/1  973/26/1  840/27/1  841/28/1 
f  975/25/1  974/26/1  841/27/1  842/28/1 
f  976/25/1  975/26/1  842/27/1  843/28/1 
f  255/29/1  976/30/1  843/31/1  249/32/1 
f  977/21/1  978/22/1  845/23/1  844/24/1 
f  979/25/1  977/26/1  844/27/1  846/28/1 
f  980/25/1  979/26/1  846/27/1  847/28/1 
f  981/25/1  980/26/1  847/27/1  848/28/1 
f  982/25/1  981/26/1  848/27/1  849/28/1 
f  983/25/1  982/26/1  849/27/1  850/28/1 
f  984/25/1  983/26/1  850/27/1  851/28/1 
f  985/25/1  984/26/1  851/27/1  852/28/1 
f  986/25/1  985/26/1  852/27/1  853/28/1 
f  987/25/1  986/26/1  853/27/1  854/28/1 
f  988/25/1  987/26/1  854/27/1  855/28/1 
f  989/25/1  988/26/1  855/27/1  856/28/1 
f  990/25/1  989/26/1  856/27/1  857/28/1 
f  991/25/1  990/26/1  857/27/1  858/28/1 
f  992/25/1  991/26/1  858/27/1  859/28/1 
f  993/25/1  992/26/1  859/27/1  860/28/1 
f  994/25/1  993/26/1  860/27/1  861/28/1 
f  995/25/1  994/26/1  861/27/1  862/28/1 
f  996/25/1  995/26/1  862/27/1  863/28/1 
f  997/25/1  996/26/1  863/27/1  864/28/1 
f  998/25/1  997/26/1  864/27/1  865/28/1 
f  999/25/1  998/26/1  865/27/1  866/28/1 
f  1000/25/1  999/26/1  866/27/1  867/28/1 
f  1001/25/1  1000/26/1  867/27/1  868/28/1 
f  1002/25/1  1001/26/1  868/27/1  869/28/1 
f  1003/25/1  1002/26/1  869/27/1  870/28/1 
f  1004/25/1  1003/26/1  870/27/1  871/28/1 
f  1005/25/1  1004/26/1  871/27/1  872/28/1 
f  1006/25/1  1005/26/1  872/27/1  873/28/1 
f  1007/25/1  1006/26/1  873/27/1  874/28/1 
f  1008/25/1  1007/26/1  874/27/1  875/28/1 
f  1009/25/1  1008/26/1  875/27/1  876/28/1 
f  1010/25/1  1009/26/1  876/27/1  877/28/1 
f  1011/25/1  1010/26/1  877/27/1  878/28/1 
f  1012/25/1  1011/26/1  878/27/1  879/28/1 
f  1013/25/1  1012/26/1  879/27/1  880/28/1 
f  1014/25/1  1013/26/1  880/27/1  881/28/1 
f  1015/25/1  1014/26/1  881/27/1  882/28/1 
f  1016/25/1  1015/26/1  882/27/1  883/28/1 
f  1017/25/1  1016/26/1  883/27/1  884/28/1 
f  1018/25/1  1017/26/1  884/27/1  885/28/1 
f  1019/25/1  1018/26/1  885/27/1  886/28/1 
f  1020/25/1  1019/26/1  886/27/1  887/28/1 
f  1021/25/1  1020/26/1  887/27/1  888/28/1 
f  1022/25/1  1021/26/1  888/27/1  889/28/1 
f  1023/25/1  1022/26/1  889/27/1  890/28/1 
f  1024/25/1  1023/26/1  890/27/1  891/28/1 
f  1025/25/1  1024/26/1  891/27/1  892/28/1 
f  1026/25/1  1025/26/1  892/27/1  893/28/1 
f  1027/25/1  1026/26/1  893/27/1  894/28/1 
f  1028/25/1  1027/26/1  894/27/1  895/28/1 
f  1029/25/1  1028/26/1  895/27/1  896/28/1 
f  1030/25/1  1029/26/1  896/27/1  897/28/1 
f  1031/25/1  1030/26/1  897/27/1  898/28/1 
f  1032/25/1  1031/26/1  898/27/1  899/28/1 
f  1033/25/1  1032/26/1  899/27/1  900/28/1 
f  1034/25/1  1033/26/1  900/27/1  901/28/1 
f  1035/25/1  1034/26/1  901/27/1  902/28/1 
f  1036/25/1  1035/26/1  902/27/1  903/28/1 
f  1037/25/1  1036/26/1  903/27/1  904/28/1 
f  1038/25/1  1037/26/1  904/27/1  905/28/1 
f  1039/25/1  1038/26/1  905/27/1  906/28/1 
f  1040/25/1  1039/26/1  906/27/1  907/28/1 
f  1041/25/1  1040/26/1  907/27/1  908/28/1 
f  1042/25/1  1041/26/1  908/27/1  909/28/1 
f  1043/25/1  1042/26/1  909/27/1  910/28/1 
f  1044/25/1  1043/26/1  910/27/1  911/28/1 
f  1045/25/1  1044/26/1  911/27/1  912/28/1 
f  1046/25/1  1045/26/1  912/27/1  913/28/1 
f  1047/25/1  1046/26/1  913/27/1  914/28/1 
f  1048/25/1  1047/26/1  914/27/1  915/28/1 
f  1049/25/1  1048/26/1  915/27/1  916/28/1 
f  1050/25/1  1049/26/1  916/27/1  917/28/1 
f  1051/25/1  1050/26/1  917/27/1  918/28/1 
f  1052/25/1  1051/26/1  918/27/1  919/28/1 
f  1053/25/1  1052/26/1  919/27/1  920/28/1 
f  1054/25/1  1053/26/1  920/27/1  921/28/1 
f  1055/25/1  1054/26/1  921/27/1  922/28/1 
f  1056/25/1  1055/26/1  922/27/1  923/28/1 
f  1057/25/1  1056/26/1  923/27/1  924/28/1 
f  1058/25/1  1057/26/1  924/27/1  925/28/1 
f  1059/25/1  1058/26/1  925/27/1  926/28/1 
f  1060/25/1  1059/26/1  926/27/1  927/28/1 
f  1061/25/1  1060/26/1  927/27/1  928/28/1 
f  1062/25/1  1061/26/1  928/27/1  929/28/1 
f  1063/25/1  1062/26/1  929/27/1  930/28/1 
f  1064/25/1  1063/26/1  930/27/1  931/28/1 
f  1065/25/1  1064/26/1  931/27/1  932/28/1 
f  1066/25/1  1065/26/1  932/27/1  933/28/1 
f  1067/25/1  1066/26/1  933/27/1  934/28/1 
f  1068/25/1  1067/26/1  934/27/1  935/28/1 
f  1069/25/1  1068/26/1  935/27/1  936/28/1 
f  1070/25/1  1069/26/1  936/27/1  937/28/1 
f  1071/25/1  1070/26/1  937/27/1  938/28/1 
f  1072/25/1  1071/26/1  938/27/1  939/28/1 
f  1073/25/1  1072/26/1  939/27/1  940/28/1 
f  1074/25/1  1073/26/1  940/27/1  941/28/1 
f  1075/25/1  1074/26/1  941/27/1  942/28/1 
f  1076/25/1  1075/26/1  942/27/1  943/28/1 
f  1077/25/1  1076/26/1  943/27/1  944/28/1 
f  1078/25/1  1077/26/1  944/27/1  945/28/1 
f  1079/25/1  1078/26/1  945/27/1  946/28/1 
f  1080/25/1  1079/26/1  946/27/1  947/28/1 
f  1081/25/1  1080/26/1  947/27/1  948/28/1 
f  1082/25/1  1081/26/1  948/27/1  949/28/1 
f  1083/25/1  1082/26/1  949/27/1  950/28/1 
f  1084/25/1  1083/26/1  950/27/1  951/28/1 
f  1085/25/1  1084/26/1  951/27/1  952/28/1 
f  1086/25/1  1085/26/1  952/27/1  953/28/1 
f  1087/25/1  1086/26/1  953/27/1  954/28/1 
f  1088/25/1  1087/26/1  954/27/1  955/28/1 
f  1089/25/1  1088/26/1  955/27/1  956/28/1 
f  1090/25/1  1089/26/1  956/27/1  957/28/1 
f  1091/25/1  1090/26/1  957/27/1  958/28/1 
f  1092/25/1  1091/26/1  958/27/1  959/28/1 
f  1093/25/1  1092/26/1  959/27/1  960/28/1 
f  1094/25/1  1093/26/1  960/27/1  961/28/1 
f  1095/25/1  1094/26/1  961/27/1  962/28/1 
f  1096/25/1  1095/26/1  962/27/1  963/28/1 
f  1097/25/1  1096/26/1  963/27/1  964/28/1 
f  1098/25/1  1097/26/1  964/27/1  965/28/1 
f  1099/25/1  1098/26/1  965/27/1  966/28/1 
f  1100/25/1  1099/26/1  966/27/1  967/28/1 
f  1101/25/1  1100/26/1  967/27/1  968/28/1 
f  1102/25/1  1101/26/1  968/27/1  969/28/1 
f  1103/25/1  1102/26/1  969/27/1  970/28/1 
f  1104/25/1  1103/26/1  970/27/1  971/28/1 
f  1105/25/1  1104/26/1  971/27/1  972/28/1 
f  1106/25/1  1105/26/1  972/27/1  973/28/1 
f  1107/25/1  1106/26/1  973/27/1  974/28/1 
f  1108/25/1  1107/26/1  974/27/1  975/28/1 
f  1109/25/1  1108/26/1  975/27/1  976/28/1 
f  261/29/1  1109/30/1  976/31/1  255/32/1 
f  1110/21/1  1111/22/1  978/23/1  977/24/1 
f  1112/25/1  1110/26/1  977/27/1  979/28/1 
f  1113/25/1  1112/26/1  979/27/1  980/28/1 
f  1114/25/1  1113/26/1  980/27/1  981/28/1 
f  1115/25/1  1114/26/1  981/27/1  982/28/1 
f  1116/25/1  1115/26/1  982/27/1  983/28/1 
f  1117/25/1  1116/26/1  983/27/1  984/28/1 
f  1118/25/1  1117/26/1  984/27/1  985/28/1 
f  1119/25/1  1118/26/1  985/27/1  986/28/1 
f  1120/25/1  1119/26/1  986/27/1  987/28/1 
f  1121/25/1  1120/26/1  987/27/1  988/28/1 
f  1122/25/1  1121/26/1  988/27/1  989/28/1 
f  1123/25/1  1122/26/1  989/27/1  990/28/1 
f  1124/25/1  1123/26/1  990/27/1  991/28/1 
f  1125/25/1  1124/26/1  991/27/1  992/28/1 
f  1126/25/1  1125/26/1  992/27/1  993/28/1 
f  1127/25/1  1126/26/1  993/27/1  994/28/1 
f  1128/25/1  1127/26/1  994/27/1  995/28/1 
f  1129/25/1  1128/26/1  995/27/1  996/28/1 
f  1130/25/1  1129/26/1  996/27/1  997/28/1 
f  1131/25/1  1130/26/1  997/27/1  998/28/1 
f  1132/25/1  1131/26/1  998/27/1  999/28/1 
f  1133/25/1  1132/26/1  999/27/1  1000/28/1 
f  1134/25/1  1133/26/1  1000/27/1  1001/28/1 
f  1135/25/1  1134/26/1  1001/27/1  1002/28/1 
f  1136/25/1  1135/26/1  1002/27/1  1003/28/1 
f  1137/25/1  1136/26/1  1003/27/1  1004/28/1 
f  1138/25/1  1137/26/1  1004/27/1  1005/28/1 
f  1139/25/1  1138/26/1  1005/27/1  1006/28/1 
f  1140/25/1  1139/26/1  1006/27/1  1007/28/1 
f  1141/25/1  1140/26/1  1007/27/1  1008/28/1 
f  1142/25/1  1141/26/1  1008/27/1  1009/28/1 
f  1143/25/1  1142/26/1  1009/27/1  1010/28/1 
f  1144/25/1  1143/26/1  1010/27/1  1011/28/1 
f  1145/25/1  1144/26/1  1011/27/1  1012/28/1 
f  1146/25/1  1145/26/1  1012/27/1  1013/28/1 
f  1147/25/1  1146/26/1  1013/27/1  1014/28/1 
f  1148/25/1  1147/26/1  1014/27/1  1015/28/1 
f  1149/25/1  1148/26/1  1015/27/1  1016/28/1 
f  1150/25/1  1149/26/1  1016/27/1  1017/28/1 
f  1151/25/1  1150/26/1  1017/27/1  1018/28/1 
f  1152/25/1  1151/26/1  1018/27/1  1019/28/1 
f  1153/25/1  1152/26/1  1019/27/1  1020/28/1 
f  1154/25/1  1153/26/1  1020/27/1  1021/28/1 
f  1155/25/1  1154/26/1  1021/27/1  1022/28/1 
f  1156/25/1  1155/26/1  1022/27/1  1023/28/1 
f  1157/25/1  1156/26/1  1023/27/1  1024/28/1 
f  1158/25/1  1157/26/1  1024/27/1  1025/28/1 
f  1159/25/1  1158/26/1  1025/27/1  1026/28/1 
f  1160/25/1  1159/26/1  1026/27/1  1027/28/1 
f  1161/25/1  1160/26/1  1027/27/1  1028/28/1 
f  1162/25/1  1161/26/1  1028/27/1  1029/28/1 
f  1163/25/1  1162/26/1  1029/27/1  1030/28/1 
f  1164/25/1  1163/26/1  1030/27/1  1031/28/1 
f  1165/25/1  1164/26/1  1031/27/1  1032/28/1 
f  1166/25/1  1165/26/1  1032/27/1  1033/28/1 
f  1167/25/1  1166/26/1  1033/27/1  1034/28/1 
f  1168/25/1  1167/26/1  1034/27/1  1035/28/1 
f  1169/25/1  1168/26/1  1035/27/1  1036/28/1 
f  1170/25/1  1169/26/1  1036/27/1  1037/28/1 
f  1171/25/1  1170/26/1  1037/27/1  1038/28/1 
f  1172/25/1  1171/26/1  1038/27/1  1039/28/1 
f  1173/25/1  1172/26/1  1039/27/1  1040/28/1 
f  1174/25/1  1173/26/1  1040/27/1  1041/28/1 
f  1175/25/1  1174/26/1  1041/27/1  1042/28/1 
f  1176/25/1  1175/26/1  1042/27/1  1043/28/1 
f  1177/25/1  1176/26/1  1043/27/1  1044/28/1 
f  1178/25/1  1177/26/1  1044/27/1  1045/28/1 
f  1179/25/1  1178/26/1  1045/27/1  1046/28/1 
f  1180/25/1  1179/26/1  1046/27/1  1047/28/1 
f  1181/25/1  1180/26/1  1047/27/1  1048/28/1 
f  1182/25/1  1181/26/1  1048/27/1  1049/28/1 
f  1183/25/1  1182/26/1  1049/27/1  1050/28/1 
f  1184/25/1  1183/26/1  1050/27/1  1051/28/1 
f  1185/25/1  1184/26/1  1051/27/1  1052/28/1 
f  1186/25/1  1185/26/1  1052/27/1  1053/28/1 
f  1187/25/1  1186/26/1  1053/27/1  1054/28/1 
f  1188/25/1  1187/26/1  1054/27/1  1055/28/1 
f  1189/25/1  1188/26/1  1055/27/1  1056/28/1 
f  1190/25/1  1189/26/1  1056/27/1  1057/28/1 
f  1191/25/1  1190/26/1  1057/27/1  1058/28/1 
f  1192/25/1  1191/26/1  1058/27/1  1059/28/1 
f  1193/25/1  1192/26/1  1059/27/1  1060/28/1 
f  1194/25/1  1193/26/1  1060/27/1  1061/28/1 
f  1195/25/1  1194/26/1  1061/27/1  1062/28/1 
f  1196/25/1  1195/26/1  1062/27/1  1063/28/1 
f  1197/25/1  1196/26/1  1063/27/1  1064/28/1 
f  1198/25/1  1197/26/1  1064/27/1  1065/28/1 
f  1199/25/1  1198/26/1  1065/27/1  1066/28/1 
f  1200/25/1  1199/26/1  1066/27/1  1067/28/1 
f  1201/25/1  1200/26/1  1067/27/1  1068/28/1 
f  1202/25/1  1201/26/1  1068/27/1  1069/28/1 
f  1203/25/1  1202/26/1  1069/27/1  1070/28/1 
f  1204/25/1  1203/26/1  1070/27/1  1071/28/1 
f  1205/25/1  1204/26/1  1071/27/1  1072/28/1 
f  1206/25/1  1205/26/1  1072/27/1  1073/28/1 
f  1207/25/1  1206/26/1  1073/27/1  1074/28/1 
f  1208/25/1  1207/26/1  1074/27/1  1075/28/1 
f  1209/25/1  1208/26/1  1075/27/1  1076/28/1 
f  1210/25/1  1209/26/1  1076/27/1  1077/28/1 
f  1211/25/1  1210/26/1  1077/27/1  1078/28/1 
f  1212/25/1  1211/26/1  1078/27/1  1079/28/1 
f  1213/25/1  1212/26/1  1079/27/1  1080/28/1 
f  1214/25/1  1213/26/1  1080/27/1  1081/28/1 
f  1215/25/1  1214/26/1  1081/27/1  1082/28/1 
f  1216/25/1  1215/26/1  1082/27/1  1083/28/1 
f  1217/25/1  1216/26/1  1083/27/1  1084/28/1 
f  1218/25/1  1217/26/1  1084/27/1  1085/28/1 
f  1219/25/1  1218/26/1  1085/27/1  1086/28/1 
f  1220/25/1  1219/26/1  1086/27/1  1087/28/1 
f  1221/25/1  1220/26/1  1087/27/1  1088/28/1 
f  1222/25/1  1221/26/1  1088/27/1  1089/28/1 
f  1223/25/1  1222/26/1  1089/27/1  1090/28/1 
f  1224/25/1  1223/26/1  1090/27/1  1091/28/1 
f  1225/25/1  1224/26/1  1091/27/1  1092/28/1 
f  1226/25/1  1225/26/1  1092/27/1  1093/28/1 
f  1227/25/1  1226/26/1  1093/27/1  1094/28/1 
f  1228/25/1  1227/26/1  1094/27/1  1095/28/1 
f  1229/25/1  1228/26/1  1095/27/1  1096/28/1 
f  1230/25/1  1229/26/1  1096/27/1  1097/28/1 
f  1231/25/1  1230/26/1  1097/27/1  1098/28/1 
f  1232/25/1  1231/26/1  1098/27/1  1099/28/1 
f  1233/25/1  1232/26/1  1099/27/1  1100/28/1 
f  1234/25/1  1233/26/1  1100/27/1  1101/28/1 
f  1235/25/1  1234/26/1  1101/27/1  1102/28/1 
f  1236/25/1  1235/26/1  1102/27/1  1103/28/1 
f  1237/25/1  1236/26/1  1103/27/1  1104/28/1 
f  1238/25/1  1237/26/1  1104/27/1  1105/28/1 
f  1239/25/1  1238/26/1  1105/27/1  1106/28/1 
f  1240/25/1  1239/26/1  1106/27/1  1107/28/1 
f  1241/25/1  1240/26/1  1107/27/1  1108/28/1 
f  1242/25/1  1241/26/1  1108/27/1  1109/28/1 
f  267/29/1  1242/30/1  1109/31/1  261/32/1 
f  1243/65/1  1244/66/1  1111/67/1  1110/68/1 
f  1245/69/1  1243/70/1  1110/71/1  1112/72/1 
f  1246/69/1  1245/70/1  1112/71/1  1113/72/1 
f  1247/69/1  1246/70/1  1113/71/1  1114/72/1 
f  1248/69/1  1247/70/1  1114/71/1  1115/72/1 
f  1249/69/1  1248/70/1  1115/71/1  1116/72/1 
f  1250/69/1  1249/70/1  1116/71/1  1117/72/1 
f  1251/69/1  1250/70/1  1117/71/1  1118/72/1 
f  1252/69/1  1251/70/1  1118/71/1  1119/72/1 
f  1253/69/1  1252/70/1  1119/71/1  1120/72/1 
f  1254/69/1  1253/70/1  1120/71/1  1121/72/1 
f  1255/69/1  1254/70/1  1121/71/1  1122/72/1 
f  1256/69/1  1255/70/1  1122/71/1  1123/72/1 
f  1257/69/1  1256/70/1  1123/71/1  1124/72/1 
f  1258/69/1  1257/70/1  1124/71/1  1125/72/1 
f  1259/69/1  1258/70/1  1125/71/1  1126/72/1 
f  1260/69/1  1259/70/1  1126/71/1  1127/72/1 
f  1261/69/1  1260/70/1  1127/71/1  1128/72/1 
f  1262/69/1  1261/70/1  1128/71/1  1129/72/1 
f  1263/69/1  1262/70/1  1129/71/1  1130/72/1 
f  1264/69/1  1263/70/1  1130/71/1  1131/72/1 
f  1265/69/1  1264/70/1  1131/71/1  1132/72/1 
f  1266/69/1  1265/70/1  1132/71/1  1133/72/1 
f  1267/69/1  1266/70/1  1133/71/1  1134/72/1 
f  1268/69/1  1267/70/1  1134/71/1  1135/72/1 
f  1269/69/1  1268/70/1  1135/71/1  1136/72/1 
f  1270/69/1  1269/70/1  1136/71/1  1137/72/1 
f  1271/69/1  1270/70/1  1137/71/1  1138/72/1 
f  1272/69/1  1271/70/1  1138/71/1  1139/72/1 
f  1273/69/1  1272/70/1  1139/71/1  1140/72/1 
f  1274/69/1  1273/70/1  1140/71/1  1141/72/1 
f  1275/69/1  1274/70/1  1141/71/1  1142/72/1 
f  1276/69/1  1275/70/1  1142/71/1  1143/72/1 
f  1277/69/1  1276/70/1  1143/71/1  1144/72/1 
f  1278/69/1  1277/70/1  1144/71/1  1145/72/1 
f  1279/69/1  1278/70/1  1145/71/1  1146/72/1 
f  1280/69/1  1279/70/1  1146/71/1  1147/72/1 
f  1281/69/1  1280/70/1  1147/71/1  1148/72/1 
f  1282/69/1  1281/70/1  1148/71/1  1149/72/1 
f  1283/69/1  1282/70/1  1149/71/1  1150/72/1 
f  1284/69/1  1283/70/1  1150/71/1  1151/72/1 
f  1285/69/1  1284/70/1  1151/71/1  1152/72/1 
f  1286/69/1  1285/70/1  1152/71/1  1153/72/1 
f  1287/69/1  1286/70/1  1153/71/1  1154/72/1 
f  1288/69/1  1287/70/1  1154/71/1  1155/72/1 
f  1289/69/1  1288/70/1  1155/71/1  1156/72/1 
f  1290/69/1  1289/70/1  1156/71/1  1157/72/1 
f  1291/69/1  1290/70/1  1157/71/1  1158/72/1 
f  1292/69/1  1291/70/1  1158/71/1  1159/72/1 
f  1293/69/1  1292/70/1  1159/71/1  1160/72/1 
f  1294/69/1  1293/70/1  1160/71/1  1161/72/1 
f  1295/69/1  1294/70/1  1161/71/1  1162/72/1 
f  1296/69/1  1295/70/1  1162/71/1  1163/72/1 
f  1297/69/1  1296/70/1  1163/71/1  1164/72/1 
f  1298/69/1  1297/70/1  1164/71/1  1165/72/1 
f  1299/69/1  1298/70/1  1165/71/1  1166/72/1 
f  1300/69/1  1299/70/1  1166/71/1  1167/72/1 
f  1301/69/1  1300/70/1  1167/71/1  1168/72/1 
f  1302/69/1  1301/70/1  1168/71/1  1169/72/1 
f  1303/69/1  1302/70/1  1169/71/1  1170/72/1 
f  1304/69/1  1303/70/1  1170/71/1  1171/72/1 
f  1305/69/1  1304/70/1  1171/71/1  1172/72/1 
f  1306/69/1  1305/70/1  1172/71/1  1173/72/1 
f  1307/69/1  1306/70/1  1173/71/1  1174/72/1 
f  1308/69/1  1307/70/1  1174/71/1  1175/72/1 
f  1309/69/1  1308/70/1  1175/71/1  1176/72/1 
f  1310/69/1  1309/70/1  1176/71/1  1177/72/1 
f  1311/69/1  1310/70/1  1177/71/1  1178/72/1 
f  1312/69/1  1311/70/1  1178/71/1  1179/72/1 
f  1313/69/1  1312/70/1  1179/71/1  1180/72/1 
f  1314/69/1  1313/70/1  1180/71/1  1181/72/1 
f  1315/69/1  1314/70/1  1181/71/1  1182/72/1 
f  1316/69/1  1315/70/1  1182/71/1  1183/72/1 
f  1317/69/1  1316/70/1  1183/71/1  1184/72/1 
f  1318/69/1  1317/70/1  1184/71/1  1185/72/1 
f  1319/69/1  1318/70/1  1185/71/1  1186/72/1 
f  1320/69/1  1319/70/1  1186/71/1  1187/72/1 
f  1321/69/1  1320/70/1  1187/71/1  1188/72/1 
f  1322/69/1  1321/70/1  1188/71/1  1189/72/1 
f  1323/69/1  1322/70/1  1189/71/1  1190/72/1 
f  1324/69/1  1323/70/1  1190/71/1  1191/72/1 
f  1325/69/1  1324/70/1  1191/71/1  1192/72/1 
f  1326/69/1  1325/70/1  1192/71/1  1193/72/1 
f  1327/69/1  1326/70/1  1193/71/1  1194/72/1 
f  1328/69/1  1327/70/1  1194/71/1  1195/72/1 
f  1329/69/1  1328/70/1  1195/71/1  1196/72/1 
f  1330/69/1  1329/70/1  1196/71/1  1197/72/1 
f  1331/69/1  1330/70/1  1197/71/1  1198/72/1 
f  1332/69/1  1331/70/1  1198/71/1  1199/72/1 
f  1333/69/1  1332/70/1  1199/71/1  1200/72/1 
f  1334/69/1  1333/70/1  1200/71/1  1201/72/1 
f  1335/69/1  1334/70/1  1201/71/1  1202/72/1 
f  1336/69/1  1335/70/1  1202/71/1  1203/72/1 
f  1337/69/1  1336/70/1  1203/71/1  1204/72/1 
f  1338/69/1  1337/70/1  1204/71/1  1205/72/1 
f  1339/69/1  1338/70/1  1205/71/1  1206/72/1 
f  1340/69/1  1339/70/1  1206/71/1  1207/72/1 
f  1341/69/1  1340/70/1  1207/71/1  1208/72/1 
f  1342/69/1  1341/70/1  1208/71/1  1209/72/1 
f  1343/69/1  1342/70/1  1209/71/1  1210/72/1 
f  1344/69/1  1343/70/1  1210/71/1  1211/72/1 
f  1345/69/1  1344/70/1  1211/71/1  1212/72/1 
f  1346/69/1  1345/70/1  1212/71/1  1213/72/1 
f  1347/69/1  1346/70/1  1213/71/1  1214/72/1 
f  1348/69/1  1347/70/1  1214/71/1  1215/72/1 
f  1349/69/1  1348/70/1  1215/71/1  1216/72/1 
f  1350/69/1  1349/70/1  1216/71/1  1217/72/1 
f  1351/69/1  1350/70/1  1217/71/1  1218/72/1 
f  1352/69/1  1351/70/1  1218/71/1  1219/72/1 
f  1353/69/1  1352/70/1  1219/71/1  1220/72/1 
f  1354/69/1  1353/70/1  1220/71/1  1221/72/1 
f  1355/69/1  1354/70/1  1221/71/1  1222/72/1 
f  1356/69/1  1355/70/1  1222/71/1  1223/72/1 
f  1357/69/1  1356/70/1  1223/71/1  1224/72/1 
f  1358/69/1  1357/70/1  1224/71/1  1225/72/1 
f  1359/69/1  1358/70/1  1225/71/1  1226/72/1 
f  1360/69/1  1359/70/1  1226/71/1  1227/72/1 
f  1361/69/1  1360/70/1  1227/71/1  1228/72/1 
f  1362/69/1  1361/70/1  1228/71/1  1229/72/1 
f  1363/69/1  1362/70/1  1229/71/1  1230/72/1 
f  1364/69/1  1363/70/1  1230/71/1  1231/72/1 
f  1365/69/1  1364/70/1  1231/71/1  1232/72/1 
f  1366/69/1  1365/70/1  1232/71/1  1233/72/1 
f  1367/69/1  1366/70/1  1233/71/1  1234/72/1 
f  1368/69/1  1367/70/1  1234/71/1  1235/72/1 
f  1369/69/1  1368/70/1  1235/71/1  1236/72/1 
f  1370/69/1  1369/70/1  1236/71/1  1237/72/1 
f  1371/69/1  1370/70/1  1237/71/1  1238/72/1 
f  1372/69/1  1371/70/1  1238/71/1  1239/72/1 
f  1373/69/1  1372/70/1  1239/71/1  1240/72/1 
f  1374/69/1  1373/70/1  1240/71/1  1241/72/1 
f  1375/69/1  1374/70/1  1241/71/1  1242/72/1 
f  273/73/1  1375/74/1  1242/75/1  267/76/1 
